HourDK,SpotPriceDKK
2023-05-20 23:00:00,0.9574299799999999
2023-05-20 22:00:00,0.998020007
2023-05-20 21:00:00,1.0158900020000001
2023-05-20 20:00:00,1.917580005
2023-05-20 19:00:00,1.8504000120000001
2023-05-20 18:00:00,1.679999988
2023-05-20 17:00:00,1.468780002
2023-05-20 16:00:00,0.43653000000000003
2023-05-20 15:00:00,0.4267
2023-05-20 14:00:00,0.42603
2023-05-20 13:00:00,0.42260000000000003
2023-05-20 12:00:00,0.42558
2023-05-20 11:00:00,0.42953
2023-05-20 10:00:00,0.45895
2023-05-20 09:00:00,0.7249099910000001
2023-05-20 08:00:00,0.871779987
2023-05-20 07:00:00,0.891890002
2023-05-20 06:00:00,0.889059985
2023-05-20 05:00:00,0.638579993
2023-05-20 04:00:00,0.634850012
2023-05-20 03:00:00,0.640590002
2023-05-20 02:00:00,0.657940009
2023-05-20 01:00:00,0.702030005
2023-05-20 00:00:00,0.737340002
2023-05-21 23:00:00,0.999499988
2023-05-21 22:00:00,1.08046001
2023-05-21 21:00:00,1.0882
2023-05-21 20:00:00,1.95697002
2023-05-21 19:00:00,1.9169000120000002
2023-05-21 18:00:00,1.5880900150000001
2023-05-21 17:00:00,1.296730001
2023-05-21 16:00:00,0.42365
2023-05-21 15:00:00,0.40063000000000004
2023-05-21 14:00:00,0.39363000000000004
2023-05-21 13:00:00,0.38945999800000003
2023-05-21 12:00:00,0.39803
2023-05-21 11:00:00,0.42313
2023-05-21 10:00:00,0.4267
2023-05-21 09:00:00,0.44264000000000003
2023-05-21 08:00:00,0.575649997
2023-05-21 07:00:00,0.6318799930000001
2023-05-21 06:00:00,0.655640002
2023-05-21 05:00:00,0.356310004
2023-05-21 04:00:00,0.368599997
2023-05-21 03:00:00,0.359959998
2023-05-21 02:00:00,0.397189993
2023-05-21 01:00:00,0.44195999799999997
2023-05-21 00:00:00,0.530359991
