,pred
2023-04-07 17:00:00+00:00,2.1301428571428573
2023-04-07 18:00:00+00:00,2.437
2023-04-07 19:00:00+00:00,2.7644285714285712
2023-04-07 20:00:00+00:00,2.6322857142857146
2023-04-07 21:00:00+00:00,2.541571428571429
2023-04-07 22:00:00+00:00,2.508714285714286
2023-04-07 23:00:00+00:00,2.508714285714286
2023-04-08 00:00:00+00:00,2.7948571428571434
2023-04-08 01:00:00+00:00,2.3507142857142855
2023-04-08 02:00:00+00:00,2.334
2023-04-08 03:00:00+00:00,2.4815714285714283
2023-04-08 04:00:00+00:00,3.4194285714285715
2023-04-08 05:00:00+00:00,0.785142857142857
2023-04-08 06:00:00+00:00,-5.366714285714285
2023-04-08 07:00:00+00:00,-9.357142857142858
2023-04-08 08:00:00+00:00,-13.881
2023-04-08 09:00:00+00:00,-14.760142857142856
2023-04-08 10:00:00+00:00,-20.11657142857143
2023-04-08 11:00:00+00:00,-22.724999999999998
2023-04-08 12:00:00+00:00,-20.111
2023-04-08 13:00:00+00:00,-14.766000000000004
2023-04-08 14:00:00+00:00,-16.755000000000003
2023-04-08 15:00:00+00:00,-10.20342857142857
2023-04-08 16:00:00+00:00,-2.7418571428571425
2023-04-08 17:00:00+00:00,2.058857142857143
2023-04-08 18:00:00+00:00,2.9254285714285717
2023-04-08 19:00:00+00:00,2.4861428571428568
2023-04-08 20:00:00+00:00,2.706571428571429
2023-04-08 21:00:00+00:00,2.665428571428571
2023-04-08 22:00:00+00:00,2.932142857142857
2023-04-08 23:00:00+00:00,3.6835714285714287
2023-04-09 00:00:00+00:00,3.1134285714285714
2023-04-09 01:00:00+00:00,3.0272857142857146
2023-04-09 02:00:00+00:00,2.1141428571428573
2023-04-09 03:00:00+00:00,2.7528571428571427
2023-04-09 04:00:00+00:00,2.7165714285714286
2023-04-09 05:00:00+00:00,-0.577
2023-04-09 06:00:00+00:00,-2.288
2023-04-09 07:00:00+00:00,-10.941285714285714
2023-04-09 08:00:00+00:00,-13.335714285714285
2023-04-09 09:00:00+00:00,-15.524714285714285
2023-04-09 10:00:00+00:00,-15.757285714285716
2023-04-09 11:00:00+00:00,-17.875
2023-04-09 12:00:00+00:00,-15.190714285714284
2023-04-09 13:00:00+00:00,-14.04857142857143
2023-04-09 14:00:00+00:00,-14.593428571428571
2023-04-09 15:00:00+00:00,-8.402857142857142
2023-04-09 16:00:00+00:00,-3.0770000000000004
2023-04-09 17:00:00+00:00,1.973857142857143
2023-04-09 18:00:00+00:00,3.1941428571428574
2023-04-09 19:00:00+00:00,2.319571428571429
2023-04-09 20:00:00+00:00,2.1354285714285717
2023-04-09 21:00:00+00:00,3.2418571428571425
2023-04-09 22:00:00+00:00,2.942714285714285
2023-04-09 23:00:00+00:00,1.822142857142857
2023-04-10 00:00:00+00:00,1.6984285714285716
2023-04-10 01:00:00+00:00,1.7202857142857144
2023-04-10 02:00:00+00:00,1.9182857142857146
2023-04-10 03:00:00+00:00,2.2905714285714285
2023-04-10 04:00:00+00:00,2.3464285714285715
2023-04-10 05:00:00+00:00,0.4391428571428571
2023-04-10 06:00:00+00:00,-7.093142857142857
2023-04-10 07:00:00+00:00,-8.473
2023-04-10 08:00:00+00:00,-16.966285714285714
2023-04-10 09:00:00+00:00,-14.880857142857142
2023-04-10 10:00:00+00:00,-16.869285714285713
2023-04-10 11:00:00+00:00,-21.757857142857144
2023-04-10 12:00:00+00:00,-19.845428571428567
2023-04-10 13:00:00+00:00,-12.413714285714287
2023-04-10 14:00:00+00:00,-10.332285714285714
2023-04-10 15:00:00+00:00,-6.307142857142857
2023-04-10 16:00:00+00:00,-0.07271428571428563
2023-04-10 17:00:00+00:00,4.9992857142857146
2023-04-10 18:00:00+00:00,4.347571428571428
2023-04-10 19:00:00+00:00,4.2175714285714285
2023-04-10 20:00:00+00:00,3.781714285714286
2023-04-10 21:00:00+00:00,3.6874285714285717
2023-04-10 22:00:00+00:00,3.4168571428571433
2023-04-10 23:00:00+00:00,3.8002857142857143
2023-04-11 00:00:00+00:00,4.229714285714286
2023-04-11 01:00:00+00:00,3.0064285714285717
2023-04-11 02:00:00+00:00,3.1304285714285713
2023-04-11 03:00:00+00:00,3.0797142857142856
2023-04-11 04:00:00+00:00,3.327571428571429
2023-04-11 05:00:00+00:00,2.3645714285714283
2023-04-11 06:00:00+00:00,1.6924285714285712
2023-04-11 07:00:00+00:00,0.9671428571428571
2023-04-11 08:00:00+00:00,-0.3797142857142858
2023-04-11 09:00:00+00:00,-4.379571428571429
2023-04-11 10:00:00+00:00,-4.728999999999999
2023-04-11 11:00:00+00:00,-9.740857142857143
2023-04-11 12:00:00+00:00,-16.34914285714286
2023-04-11 13:00:00+00:00,-12.669428571428572
2023-04-11 14:00:00+00:00,-4.993714285714286
2023-04-11 15:00:00+00:00,-7.13
2023-04-11 16:00:00+00:00,-2.2344285714285714
2023-04-11 17:00:00+00:00,1.7637142857142858
2023-04-11 18:00:00+00:00,3.106142857142857
2023-04-11 19:00:00+00:00,2.500714285714286
2023-04-11 20:00:00+00:00,3.2484285714285717
2023-04-11 21:00:00+00:00,2.918857142857143
2023-04-11 22:00:00+00:00,2.8412857142857146
2023-04-11 23:00:00+00:00,3.8522857142857143
2023-04-12 00:00:00+00:00,3.916857142857143
2023-04-12 01:00:00+00:00,3.011
2023-04-12 02:00:00+00:00,3.0417142857142854
2023-04-12 03:00:00+00:00,2.8381428571428566
2023-04-12 04:00:00+00:00,2.6614285714285715
2023-04-12 05:00:00+00:00,0.03014285714285701
2023-04-12 06:00:00+00:00,-6.900285714285715
2023-04-12 07:00:00+00:00,-10.285714285714286
2023-04-12 08:00:00+00:00,-13.964857142857142
2023-04-12 09:00:00+00:00,-18.96742857142857
2023-04-12 10:00:00+00:00,-21.583142857142857
2023-04-12 11:00:00+00:00,-21.525142857142857
2023-04-12 12:00:00+00:00,-12.793428571428572
2023-04-12 13:00:00+00:00,-4.134142857142857
2023-04-12 14:00:00+00:00,-2.434142857142857
2023-04-12 15:00:00+00:00,0.10685714285714286
2023-04-12 16:00:00+00:00,1.4354285714285715
2023-04-12 17:00:00+00:00,2.074857142857143
2023-04-12 18:00:00+00:00,2.1335714285714285
2023-04-12 19:00:00+00:00,4.558571428571428
2023-04-12 20:00:00+00:00,2.9838571428571434
2023-04-12 21:00:00+00:00,2.8751428571428574
2023-04-12 22:00:00+00:00,2.982714285714286
2023-04-12 23:00:00+00:00,2.908
2023-04-13 00:00:00+00:00,3.366142857142857
2023-04-13 01:00:00+00:00,2.2904285714285715
2023-04-13 02:00:00+00:00,2.736571428571428
2023-04-13 03:00:00+00:00,2.491
2023-04-13 04:00:00+00:00,2.883
2023-04-13 05:00:00+00:00,-0.9017142857142858
2023-04-13 06:00:00+00:00,-7.210571428571428
2023-04-13 07:00:00+00:00,-14.070857142857145
2023-04-13 08:00:00+00:00,-17.234857142857145
2023-04-13 09:00:00+00:00,-14.004000000000001
2023-04-13 10:00:00+00:00,-17.225142857142856
2023-04-13 11:00:00+00:00,-16.83285714285714
2023-04-13 12:00:00+00:00,-10.304428571428572
2023-04-13 13:00:00+00:00,-11.362142857142858
2023-04-13 14:00:00+00:00,-16.22457142857143
2023-04-13 15:00:00+00:00,-10.648285714285716
2023-04-13 16:00:00+00:00,-2.3575714285714287
2023-04-13 17:00:00+00:00,1.8951428571428572
2023-04-13 18:00:00+00:00,2.6195714285714287
2023-04-13 19:00:00+00:00,2.0885714285714285
2023-04-13 20:00:00+00:00,2.170571428571429
2023-04-13 21:00:00+00:00,2.0662857142857143
2023-04-13 22:00:00+00:00,2.573428571428571
2023-04-13 23:00:00+00:00,2.246857142857143
2023-04-14 00:00:00+00:00,2.3185714285714285
2023-04-14 01:00:00+00:00,2.9315714285714285
2023-04-14 02:00:00+00:00,2.956142857142857
2023-04-14 03:00:00+00:00,3.143714285714286
2023-04-14 04:00:00+00:00,2.6971428571428575
2023-04-14 05:00:00+00:00,1.2644285714285712
2023-04-14 06:00:00+00:00,-1.6634285714285717
2023-04-14 07:00:00+00:00,-9.36942857142857
2023-04-14 08:00:00+00:00,-8.889999999999999
2023-04-14 09:00:00+00:00,-8.175857142857142
2023-04-14 10:00:00+00:00,-5.143857142857143
2023-04-14 11:00:00+00:00,-3.914
2023-04-14 12:00:00+00:00,-1.5937142857142859
2023-04-14 13:00:00+00:00,-1.675142857142857
2023-04-14 14:00:00+00:00,-0.3458571428571429
2023-04-14 15:00:00+00:00,1.4827142857142857
2023-04-14 16:00:00+00:00,2.173142857142857
2023-04-14 17:00:00+00:00,2.696714285714286
2023-04-14 18:00:00+00:00,2.88
2023-04-14 19:00:00+00:00,3.508285714285715
2023-04-14 20:00:00+00:00,3.5434285714285716
2023-04-14 21:00:00+00:00,2.6571428571428575
2023-04-14 22:00:00+00:00,2.761428571428571
2023-04-14 23:00:00+00:00,2.865285714285714
2023-04-15 00:00:00+00:00,2.3112857142857144
2023-04-15 01:00:00+00:00,2.389714285714286
2023-04-15 02:00:00+00:00,2.5652857142857144
2023-04-15 03:00:00+00:00,3.214142857142857
2023-04-15 04:00:00+00:00,2.642
2023-04-15 05:00:00+00:00,0.45671428571428574
2023-04-15 06:00:00+00:00,-7.129428571428571
2023-04-15 07:00:00+00:00,-12.63342857142857
2023-04-15 08:00:00+00:00,-14.804000000000002
2023-04-15 09:00:00+00:00,-13.265428571428572
2023-04-15 10:00:00+00:00,-18.239142857142856
2023-04-15 11:00:00+00:00,-9.739714285714285
2023-04-15 12:00:00+00:00,-13.037571428571429
2023-04-15 13:00:00+00:00,-14.16
2023-04-15 14:00:00+00:00,-11.173857142857143
2023-04-15 15:00:00+00:00,-3.105
2023-04-15 16:00:00+00:00,0.8748571428571429
2023-04-15 17:00:00+00:00,1.6572857142857145
2023-04-15 18:00:00+00:00,2.608
2023-04-15 19:00:00+00:00,3.6669999999999994
2023-04-15 20:00:00+00:00,2.6272857142857147
2023-04-15 21:00:00+00:00,2.580285714285714
2023-04-15 22:00:00+00:00,2.0158571428571426
2023-04-15 23:00:00+00:00,2.334
2023-04-16 00:00:00+00:00,2.174
2023-04-16 01:00:00+00:00,2.263142857142857
2023-04-16 02:00:00+00:00,2.539857142857143
2023-04-16 03:00:00+00:00,2.495714285714286
2023-04-16 04:00:00+00:00,2.5151428571428576
2023-04-16 05:00:00+00:00,2.1602857142857146
2023-04-16 06:00:00+00:00,-1.9164285714285714
2023-04-16 07:00:00+00:00,-1.6334285714285712
2023-04-16 08:00:00+00:00,-2.11
2023-04-16 09:00:00+00:00,-3.167857142857143
2023-04-16 10:00:00+00:00,-3.822714285714286
2023-04-16 11:00:00+00:00,-9.207142857142856
2023-04-16 12:00:00+00:00,-13.44242857142857
2023-04-16 13:00:00+00:00,-15.644857142857143
2023-04-16 14:00:00+00:00,-8.021142857142857
2023-04-16 15:00:00+00:00,-3.2277142857142858
2023-04-16 16:00:00+00:00,0.7827142857142858
2023-04-16 17:00:00+00:00,1.6797142857142855
2023-04-16 18:00:00+00:00,1.3267142857142857
2023-04-16 19:00:00+00:00,2.0425714285714287
2023-04-16 20:00:00+00:00,2.349
2023-04-16 21:00:00+00:00,2.706285714285714
2023-04-16 22:00:00+00:00,3.1849999999999996
2023-04-16 23:00:00+00:00,3.4782857142857146
2023-04-17 00:00:00+00:00,3.8000000000000003
2023-04-17 01:00:00+00:00,3.5312857142857146
2023-04-17 02:00:00+00:00,4.199571428571429
2023-04-17 03:00:00+00:00,2.8909999999999996
2023-04-17 04:00:00+00:00,3.509571428571428
2023-04-17 05:00:00+00:00,-1.6172857142857144
2023-04-17 06:00:00+00:00,-6.926285714285714
2023-04-17 07:00:00+00:00,-16.030428571428573
2023-04-17 08:00:00+00:00,-15.231857142857146
2023-04-17 09:00:00+00:00,-21.596999999999998
2023-04-17 10:00:00+00:00,-21.757857142857144
2023-04-17 11:00:00+00:00,-21.757857142857144
2023-04-17 12:00:00+00:00,-21.757857142857144
2023-04-17 13:00:00+00:00,-17.855857142857143
2023-04-17 14:00:00+00:00,-11.472
2023-04-17 15:00:00+00:00,-11.60414285714286
2023-04-17 16:00:00+00:00,-4.075857142857143
2023-04-17 17:00:00+00:00,1.0462857142857143
2023-04-17 18:00:00+00:00,2.561571428571429
2023-04-17 19:00:00+00:00,2.1181428571428573
2023-04-17 20:00:00+00:00,2.3102857142857145
2023-04-17 21:00:00+00:00,2.3329999999999997
2023-04-17 22:00:00+00:00,2.4424285714285716
2023-04-17 23:00:00+00:00,2.3912857142857145
2023-04-18 00:00:00+00:00,2.8451428571428568
2023-04-18 01:00:00+00:00,2.7109999999999994
2023-04-18 02:00:00+00:00,2.9648571428571424
2023-04-18 03:00:00+00:00,2.732
2023-04-18 04:00:00+00:00,3.0485714285714285
2023-04-18 05:00:00+00:00,-0.9635714285714286
2023-04-18 06:00:00+00:00,-9.816
2023-04-18 07:00:00+00:00,-14.725
2023-04-18 08:00:00+00:00,-14.617857142857146
2023-04-18 09:00:00+00:00,-21.757857142857144
2023-04-18 10:00:00+00:00,-21.757857142857144
2023-04-18 11:00:00+00:00,-21.757857142857144
2023-04-18 12:00:00+00:00,-21.757857142857144
2023-04-18 13:00:00+00:00,-16.589285714285715
2023-04-18 14:00:00+00:00,-15.943
2023-04-18 15:00:00+00:00,-10.396571428571429
2023-04-18 16:00:00+00:00,-3.8359999999999994
2023-04-18 17:00:00+00:00,1.5808571428571427
2023-04-18 18:00:00+00:00,2.696285714285714
2023-04-18 19:00:00+00:00,2.496571428571429
2023-04-18 20:00:00+00:00,2.825428571428571
2023-04-18 21:00:00+00:00,2.3502857142857145
2023-04-18 22:00:00+00:00,2.4754285714285715
2023-04-18 23:00:00+00:00,3.1478571428571427
2023-04-19 00:00:00+00:00,5.252428571428571
2023-04-19 01:00:00+00:00,4.143857142857143
2023-04-19 02:00:00+00:00,3.025
2023-04-19 03:00:00+00:00,3.089571428571429
2023-04-19 04:00:00+00:00,2.7887142857142857
2023-04-19 05:00:00+00:00,-3.4810000000000003
2023-04-19 06:00:00+00:00,-11.393571428571429
2023-04-19 07:00:00+00:00,-12.836714285714283
2023-04-19 08:00:00+00:00,-17.584142857142854
2023-04-19 09:00:00+00:00,-21.757857142857144
2023-04-19 10:00:00+00:00,-21.757857142857144
2023-04-19 11:00:00+00:00,-21.757857142857144
2023-04-19 12:00:00+00:00,-21.757857142857144
2023-04-19 13:00:00+00:00,-16.959285714285713
2023-04-19 14:00:00+00:00,-18.73428571428571
2023-04-19 15:00:00+00:00,-13.778714285714285
2023-04-19 16:00:00+00:00,-6.446
2023-04-19 17:00:00+00:00,-0.2627142857142857
2023-04-19 18:00:00+00:00,2.5002857142857144
2023-04-19 19:00:00+00:00,2.5825714285714283
2023-04-19 20:00:00+00:00,2.549285714285714
2023-04-19 21:00:00+00:00,2.4694285714285718
2023-04-19 22:00:00+00:00,4.9374285714285735
2023-04-19 23:00:00+00:00,6.482571428571428
2023-04-20 00:00:00+00:00,6.9071428571428575
2023-04-20 01:00:00+00:00,7.476
2023-04-20 02:00:00+00:00,6.254714285714286
2023-04-20 03:00:00+00:00,3.841714285714286
2023-04-20 04:00:00+00:00,4.195285714285714
2023-04-20 05:00:00+00:00,-0.4445714285714287
2023-04-20 06:00:00+00:00,-7.232571428571428
2023-04-20 07:00:00+00:00,-5.910714285714286
2023-04-20 08:00:00+00:00,-9.921857142857144
2023-04-20 09:00:00+00:00,-16.927285714285713
2023-04-20 10:00:00+00:00,-21.757857142857144
2023-04-20 11:00:00+00:00,-21.757857142857144
2023-04-20 12:00:00+00:00,-21.757857142857144
2023-04-20 13:00:00+00:00,-16.398999999999997
2023-04-20 14:00:00+00:00,-14.859428571428571
2023-04-20 15:00:00+00:00,-11.935285714285715
2023-04-20 16:00:00+00:00,-6.288142857142857
2023-04-20 17:00:00+00:00,0.5785714285714286
2023-04-20 18:00:00+00:00,2.7285714285714286
2023-04-20 19:00:00+00:00,2.9011428571428572
2023-04-20 20:00:00+00:00,3.640285714285714
2023-04-20 21:00:00+00:00,2.8987142857142856
2023-04-20 22:00:00+00:00,5.666571428571428
2023-04-20 23:00:00+00:00,5.194285714285714
2023-04-21 00:00:00+00:00,5.301857142857143
2023-04-21 01:00:00+00:00,5.129571428571429
2023-04-21 02:00:00+00:00,4.610857142857143
2023-04-21 03:00:00+00:00,3.2238571428571428
2023-04-21 04:00:00+00:00,2.1464285714285714
2023-04-21 05:00:00+00:00,-2.992
2023-04-21 06:00:00+00:00,-9.739285714285714
2023-04-21 07:00:00+00:00,-16.274571428571427
2023-04-21 08:00:00+00:00,-15.835142857142857
2023-04-21 09:00:00+00:00,-21.757857142857144
2023-04-21 10:00:00+00:00,-21.757857142857144
2023-04-21 11:00:00+00:00,-21.757857142857144
2023-04-21 12:00:00+00:00,-21.757857142857144
2023-04-21 13:00:00+00:00,-16.547285714285714
2023-04-21 14:00:00+00:00,-17.797285714285714
2023-04-21 15:00:00+00:00,-14.749285714285715
2023-04-21 16:00:00+00:00,-5.590857142857144
2023-04-21 17:00:00+00:00,-0.8945714285714287
2023-04-21 18:00:00+00:00,2.2067142857142854
2023-04-21 19:00:00+00:00,4.1411428571428575
2023-04-21 20:00:00+00:00,4.213
2023-04-21 21:00:00+00:00,2.588
2023-04-21 22:00:00+00:00,2.206285714285714
2023-04-21 23:00:00+00:00,3.003
2023-04-22 00:00:00+00:00,3.080142857142857
2023-04-22 01:00:00+00:00,3.5919999999999996
2023-04-22 02:00:00+00:00,3.8032857142857144
2023-04-22 03:00:00+00:00,3.3637142857142863
2023-04-22 04:00:00+00:00,2.4974285714285713
2023-04-22 05:00:00+00:00,-4.020142857142857
2023-04-22 06:00:00+00:00,-9.067714285714285
2023-04-22 07:00:00+00:00,-13.316714285714285
2023-04-22 08:00:00+00:00,-14.617857142857146
2023-04-22 09:00:00+00:00,-21.757857142857144
2023-04-22 10:00:00+00:00,-21.757857142857144
2023-04-22 11:00:00+00:00,-21.757857142857144
2023-04-22 12:00:00+00:00,-21.757857142857144
2023-04-22 13:00:00+00:00,-15.560142857142859
2023-04-22 14:00:00+00:00,-15.669857142857143
2023-04-22 15:00:00+00:00,-10.954285714285714
2023-04-22 16:00:00+00:00,-1.7101428571428572
2023-04-22 17:00:00+00:00,2.4784285714285716
2023-04-22 18:00:00+00:00,3.178285714285714
2023-04-22 19:00:00+00:00,2.175857142857143
2023-04-22 20:00:00+00:00,1.6334285714285717
2023-04-22 21:00:00+00:00,1.9562857142857144
2023-04-22 22:00:00+00:00,3.051000000000001
2023-04-22 23:00:00+00:00,3.954571428571429
2023-04-23 00:00:00+00:00,2.3747142857142856
2023-04-23 01:00:00+00:00,2.108571428571429
2023-04-23 02:00:00+00:00,1.6084285714285715
2023-04-23 03:00:00+00:00,2.0805714285714285
2023-04-23 04:00:00+00:00,1.6498571428571427
2023-04-23 05:00:00+00:00,1.3615714285714287
2023-04-23 06:00:00+00:00,1.8797142857142857
2023-04-23 07:00:00+00:00,3.229571428571428
2023-04-23 08:00:00+00:00,2.554142857142857
2023-04-23 09:00:00+00:00,2.643571428571429
2023-04-23 10:00:00+00:00,2.5665714285714287
2023-04-23 11:00:00+00:00,2.4137142857142857
2023-04-23 12:00:00+00:00,2.5277142857142856
2023-04-23 13:00:00+00:00,-14.790428571428569
2023-04-23 14:00:00+00:00,1.661714285714286
2023-04-23 15:00:00+00:00,1.2101428571428572
2023-04-23 16:00:00+00:00,2.4250000000000003
2023-04-23 17:00:00+00:00,0.674
2023-04-23 18:00:00+00:00,3.3305714285714285
2023-04-23 19:00:00+00:00,2.9902857142857147
2023-04-23 20:00:00+00:00,2.113
2023-04-23 21:00:00+00:00,2.170714285714286
2023-04-23 22:00:00+00:00,2.884
2023-04-23 23:00:00+00:00,2.4475714285714285
2023-04-24 00:00:00+00:00,2.7621428571428566
2023-04-24 01:00:00+00:00,2.2151428571428573
2023-04-24 02:00:00+00:00,2.1125714285714285
2023-04-24 03:00:00+00:00,2.4681428571428574
2023-04-24 04:00:00+00:00,3.4588571428571435
2023-04-24 05:00:00+00:00,2.1175714285714284
2023-04-24 06:00:00+00:00,0.3115714285714287
2023-04-24 07:00:00+00:00,-8.591285714285714
2023-04-24 08:00:00+00:00,-17.189285714285713
2023-04-24 09:00:00+00:00,-19.516571428571428
2023-04-24 10:00:00+00:00,-14.717
2023-04-24 11:00:00+00:00,-13.503142857142857
2023-04-24 12:00:00+00:00,-12.793428571428572
2023-04-24 13:00:00+00:00,-15.475428571428571
2023-04-24 14:00:00+00:00,-15.39885714285714
2023-04-24 15:00:00+00:00,-12.130857142857142
2023-04-24 16:00:00+00:00,-4.186142857142857
2023-04-24 17:00:00+00:00,1.647857142857143
2023-04-24 18:00:00+00:00,2.478142857142857
2023-04-24 19:00:00+00:00,2.464
2023-04-24 20:00:00+00:00,3.9645714285714284
2023-04-24 21:00:00+00:00,2.8215714285714286
2023-04-24 22:00:00+00:00,4.023571428571429
2023-04-24 23:00:00+00:00,4.7462857142857136
2023-04-25 00:00:00+00:00,3.212285714285715
2023-04-25 01:00:00+00:00,4.5641428571428575
2023-04-25 02:00:00+00:00,2.2154285714285717
2023-04-25 03:00:00+00:00,1.9845714285714287
2023-04-25 04:00:00+00:00,2.4138571428571427
2023-04-25 05:00:00+00:00,2.491285714285714
2023-04-25 06:00:00+00:00,0.9355714285714286
2023-04-25 07:00:00+00:00,-3.147142857142857
2023-04-25 08:00:00+00:00,-4.007285714285714
2023-04-25 09:00:00+00:00,-6.972
2023-04-25 10:00:00+00:00,-9.322285714285714
2023-04-25 11:00:00+00:00,-7.849285714285713
2023-04-25 12:00:00+00:00,-7.930142857142856
2023-04-25 13:00:00+00:00,-9.596999999999998
2023-04-25 14:00:00+00:00,-3.1354285714285717
2023-04-25 15:00:00+00:00,-1.0595714285714286
2023-04-25 16:00:00+00:00,-0.4015714285714286
2023-04-25 17:00:00+00:00,2.056
2023-04-25 18:00:00+00:00,1.7304285714285716
2023-04-25 19:00:00+00:00,2.346285714285714
2023-04-25 20:00:00+00:00,1.7457142857142856
2023-04-25 21:00:00+00:00,2.3084285714285713
2023-04-25 22:00:00+00:00,2.7314285714285718
2023-04-25 23:00:00+00:00,2.693142857142857
2023-04-26 00:00:00+00:00,2.6272857142857142
2023-04-26 01:00:00+00:00,2.302285714285714
2023-04-26 02:00:00+00:00,3.4295714285714287
2023-04-26 03:00:00+00:00,2.8859999999999997
2023-04-26 04:00:00+00:00,2.5708571428571427
2023-04-26 05:00:00+00:00,-4.408142857142857
2023-04-26 06:00:00+00:00,-11.54557142857143
2023-04-26 07:00:00+00:00,-14.417285714285715
2023-04-26 08:00:00+00:00,-12.618714285714285
2023-04-26 09:00:00+00:00,-19.924571428571426
2023-04-26 10:00:00+00:00,-21.757857142857144
2023-04-26 11:00:00+00:00,-22.016285714285715
2023-04-26 12:00:00+00:00,-16.541714285714285
2023-04-26 13:00:00+00:00,-17.677714285714284
2023-04-26 14:00:00+00:00,-13.184857142857142
2023-04-26 15:00:00+00:00,-10.197999999999999
2023-04-26 16:00:00+00:00,-7.954714285714287
2023-04-26 17:00:00+00:00,-0.13828571428571426
2023-04-26 18:00:00+00:00,2.3841428571428573
2023-04-26 19:00:00+00:00,3.3594285714285723
2023-04-26 20:00:00+00:00,3.397142857142857
2023-04-26 21:00:00+00:00,2.3394285714285714
2023-04-26 22:00:00+00:00,3.2857142857142856
2023-04-26 23:00:00+00:00,3.6835714285714287
2023-04-27 00:00:00+00:00,2.7812857142857146
2023-04-27 01:00:00+00:00,2.3444285714285713
2023-04-27 02:00:00+00:00,2.815714285714286
2023-04-27 03:00:00+00:00,2.738142857142857
2023-04-27 04:00:00+00:00,1.5115714285714286
2023-04-27 05:00:00+00:00,-3.991428571428571
2023-04-27 06:00:00+00:00,-10.91457142857143
2023-04-27 07:00:00+00:00,-14.770285714285716
2023-04-27 08:00:00+00:00,-15.329428571428574
2023-04-27 09:00:00+00:00,-21.757857142857144
2023-04-27 10:00:00+00:00,-21.757857142857144
2023-04-27 11:00:00+00:00,-16.331857142857142
2023-04-27 12:00:00+00:00,-21.757857142857144
2023-04-27 13:00:00+00:00,-19.712857142857143
2023-04-27 14:00:00+00:00,-14.602571428571427
2023-04-27 15:00:00+00:00,-14.74042857142857
2023-04-27 16:00:00+00:00,-4.245285714285714
2023-04-27 17:00:00+00:00,-1.2302857142857142
2023-04-27 18:00:00+00:00,1.6687142857142856
2023-04-27 19:00:00+00:00,2.3275714285714284
2023-04-27 20:00:00+00:00,2.4977142857142858
2023-04-27 21:00:00+00:00,2.413
2023-04-27 22:00:00+00:00,2.919
2023-04-27 23:00:00+00:00,3.049857142857143
2023-04-28 00:00:00+00:00,2.591142857142857
2023-04-28 01:00:00+00:00,2.4314285714285715
2023-04-28 02:00:00+00:00,2.1878571428571427
2023-04-28 03:00:00+00:00,2.956857142857143
2023-04-28 04:00:00+00:00,1.5082857142857142
2023-04-28 05:00:00+00:00,-3.2658571428571435
2023-04-28 06:00:00+00:00,-10.459999999999999
2023-04-28 07:00:00+00:00,-12.205
2023-04-28 08:00:00+00:00,-16.476428571428574
2023-04-28 09:00:00+00:00,-21.757857142857144
2023-04-28 10:00:00+00:00,-15.68128571428571
2023-04-28 11:00:00+00:00,-21.757857142857144
2023-04-28 12:00:00+00:00,-14.048571428571432
2023-04-28 13:00:00+00:00,-14.876857142857144
2023-04-28 14:00:00+00:00,-11.978285714285715
2023-04-28 15:00:00+00:00,-7.183714285714286
2023-04-28 16:00:00+00:00,-2.720142857142857
2023-04-28 17:00:00+00:00,1.7925714285714285
2023-04-28 18:00:00+00:00,2.6302857142857143
2023-04-28 19:00:00+00:00,2.3712857142857144
2023-04-28 20:00:00+00:00,2.946
2023-04-28 21:00:00+00:00,2.7017142857142855
2023-04-28 22:00:00+00:00,3.095142857142857
2023-04-28 23:00:00+00:00,3.0438571428571426
2023-04-29 00:00:00+00:00,2.8007142857142857
2023-04-29 01:00:00+00:00,2.3404285714285717
2023-04-29 02:00:00+00:00,2.3377142857142856
2023-04-29 03:00:00+00:00,3.0544285714285713
2023-04-29 04:00:00+00:00,3.3422857142857145
2023-04-29 05:00:00+00:00,0.22985714285714284
2023-04-29 06:00:00+00:00,-6.337571428571429
2023-04-29 07:00:00+00:00,-9.667428571428571
2023-04-29 08:00:00+00:00,-16.092142857142857
2023-04-29 09:00:00+00:00,-21.757857142857144
2023-04-29 10:00:00+00:00,-21.757857142857144
2023-04-29 11:00:00+00:00,-21.757857142857144
2023-04-29 12:00:00+00:00,-17.883714285714287
2023-04-29 13:00:00+00:00,-17.69085714285714
2023-04-29 14:00:00+00:00,-13.109
2023-04-29 15:00:00+00:00,-14.670857142857143
2023-04-29 16:00:00+00:00,-9.521142857142857
2023-04-29 17:00:00+00:00,-1.522142857142857
2023-04-29 18:00:00+00:00,1.936
2023-04-29 19:00:00+00:00,3.5002857142857144
2023-04-29 20:00:00+00:00,2.767
2023-04-29 21:00:00+00:00,2.2245714285714286
2023-04-29 22:00:00+00:00,2.4924285714285714
2023-04-29 23:00:00+00:00,2.551142857142857
2023-04-30 00:00:00+00:00,2.3201428571428573
2023-04-30 01:00:00+00:00,1.9408571428571428
2023-04-30 02:00:00+00:00,2.0020000000000002
2023-04-30 03:00:00+00:00,2.7369999999999997
2023-04-30 04:00:00+00:00,0.9775714285714285
2023-04-30 05:00:00+00:00,-4.463571428571428
2023-04-30 06:00:00+00:00,-8.518714285714285
2023-04-30 07:00:00+00:00,-14.498999999999999
2023-04-30 08:00:00+00:00,-14.861142857142857
2023-04-30 09:00:00+00:00,-21.757857142857144
2023-04-30 10:00:00+00:00,-20.614285714285717
2023-04-30 11:00:00+00:00,-15.190714285714288
2023-04-30 12:00:00+00:00,-21.757857142857144
2023-04-30 13:00:00+00:00,-21.757857142857144
2023-04-30 14:00:00+00:00,-15.143571428571429
2023-04-30 15:00:00+00:00,-12.860142857142856
2023-04-30 16:00:00+00:00,-10.168571428571427
2023-04-30 17:00:00+00:00,-1.4762857142857142
2023-04-30 18:00:00+00:00,1.9288571428571426
2023-04-30 19:00:00+00:00,2.9254285714285717
2023-04-30 20:00:00+00:00,2.3017142857142856
2023-04-30 21:00:00+00:00,2.357
2023-04-30 22:00:00+00:00,4.798714285714285
2023-04-30 23:00:00+00:00,3.922285714285714
2023-05-01 00:00:00+00:00,2.5930000000000004
2023-05-01 01:00:00+00:00,2.2484285714285717
2023-05-01 02:00:00+00:00,3.1831428571428577
2023-05-01 03:00:00+00:00,3.800142857142857
2023-05-01 04:00:00+00:00,1.7468571428571429
2023-05-01 05:00:00+00:00,-3.815
2023-05-01 06:00:00+00:00,-10.03842857142857
2023-05-01 07:00:00+00:00,-14.798857142857145
2023-05-01 08:00:00+00:00,-14.828714285714288
2023-05-01 09:00:00+00:00,-21.757857142857144
2023-05-01 10:00:00+00:00,-21.757857142857144
2023-05-01 11:00:00+00:00,-21.757857142857144
2023-05-01 12:00:00+00:00,-21.757857142857144
2023-05-01 13:00:00+00:00,-16.547285714285714
2023-05-01 14:00:00+00:00,-13.214714285714285
2023-05-01 15:00:00+00:00,-10.163857142857141
2023-05-01 16:00:00+00:00,-3.1344285714285713
2023-05-01 17:00:00+00:00,-0.16571428571428576
2023-05-01 18:00:00+00:00,2.4785714285714286
2023-05-01 19:00:00+00:00,5.389714285714285
2023-05-01 20:00:00+00:00,3.7157142857142857
2023-05-01 21:00:00+00:00,3.7212857142857145
