[-14, -12.997386487384961, 0.802090810092031, "2023-05-16 09:47:26.113480", 0.16500000000000092, -5.3422857142857145]
[-14, -13.459928618874262, 0.4320571049005906, "2023-05-16 09:59:00.477603", 0.16500000000000092, -5.3422857142857145]
[-14, -13.778188653888897, 0, "2023-05-16 09:59:01.490764", 0.16500000000000092, -5.3422857142857145]
[-14, -13.777738309406816, 0, "2023-05-16 09:59:02.500630", 0.16500000000000092, -5.3422857142857145]
[-14, -13.777287973453987, 0, "2023-05-16 09:59:03.512321", 0.16500000000000092, -5.3422857142857145]
[-14, -13.776837646030247, 0, "2023-05-16 09:59:04.523438", 0.16500000000000092, -5.3422857142857145]
[-14, -13.776387327135435, 0, "2023-05-16 09:59:05.526632", 0.16500000000000092, -5.3422857142857145]
[-14, -13.77593701676939, 0, "2023-05-16 09:59:06.527804", 0.16500000000000092, -5.3422857142857145]
[-14, -13.77548671493195, 0, "2023-05-16 09:59:07.536478", 0.16500000000000092, -5.3422857142857145]
[-14, -13.775036421622955, 0, "2023-05-16 09:59:08.549624", 0.16500000000000092, -5.3422857142857145]
[-14, -13.774586136842244, 0, "2023-05-16 09:59:09.560115", 0.16500000000000092, -5.3422857142857145]
[-14, -13.774135860589652, 0, "2023-05-16 09:59:10.571052", 0.16500000000000092, -5.3422857142857145]
[-14, -13.77368559286502, 0, "2023-05-16 09:59:11.574155", 0.16500000000000092, -5.3422857142857145]
[-14, -13.773235333668184, 0, "2023-05-16 09:59:12.581826", 0.16500000000000092, -5.3422857142857145]
[-14, -13.772785082998986, 0, "2023-05-16 09:59:13.583787", 0.16500000000000092, -5.3422857142857145]
[-14, -13.772334840857262, 0, "2023-05-16 09:59:14.585154", 0.16500000000000092, -5.3422857142857145]
[-14, -13.771884607242852, 0, "2023-05-16 09:59:15.600074", 0.16500000000000092, -5.3422857142857145]
[-14, -13.771434382155594, 0, "2023-05-16 09:59:16.610355", 0.16500000000000092, -5.3422857142857145]
[-14, -13.770984165595326, 0, "2023-05-16 09:59:17.620492", 0.16500000000000092, -5.3422857142857145]
[-14, -13.770533957561886, 0, "2023-05-16 09:59:18.630697", 0.16500000000000092, -5.3422857142857145]
[-14, -13.770083758055113, 0, "2023-05-16 09:59:19.642324", 0.16500000000000092, -5.3422857142857145]
[-14, -13.769633567074846, 0, "2023-05-16 09:59:20.649267", 0.16500000000000092, -5.3422857142857145]
[-14, -13.769183384620925, 0, "2023-05-16 09:59:21.660157", 0.16500000000000092, -5.3422857142857145]
[-14, -13.768733210693187, 0, "2023-05-16 09:59:22.672165", 0.16500000000000092, -5.3422857142857145]
[-14, -13.768283045291469, 0, "2023-05-16 09:59:23.685573", 0.16500000000000092, -5.3422857142857145]
[-14, -13.767832888415612, 0, "2023-05-16 09:59:24.697932", 0.16500000000000092, -5.3422857142857145]
[-14, -13.767382740065452, 0, "2023-05-16 09:59:25.712616", 0.16500000000000092, -5.3422857142857145]
[-14, -13.76693260024083, 0, "2023-05-16 09:59:26.723680", 0.16500000000000092, -5.3422857142857145]
[-14, -13.766482468941582, 0, "2023-05-16 09:59:27.735347", 0.16500000000000092, -5.3422857142857145]
[-14, -13.766032346167549, 0, "2023-05-16 09:59:28.747482", 0.16500000000000092, -5.3422857142857145]
[-14, -13.765582231918568, 0, "2023-05-16 09:59:29.758259", 0.16500000000000092, -5.3422857142857145]
[-14, -13.765132126194478, 0, "2023-05-16 09:59:30.772471", 0.16500000000000092, -5.3422857142857145]
[-14, -13.764682028995118, 0, "2023-05-16 09:59:31.775905", 0.16500000000000092, -5.3422857142857145]
[-14, -13.764231940320327, 0, "2023-05-16 09:59:32.787823", 0.16500000000000092, -5.3422857142857145]
[-14, -13.763781860169942, 0, "2023-05-16 09:59:33.803864", 0.16500000000000092, -5.3422857142857145]
[-14, -13.763331788543802, 0, "2023-05-16 09:59:34.812849", 0.16500000000000092, -5.3422857142857145]
[-14, -13.762881725441746, 0, "2023-05-16 09:59:35.824792", 0.16500000000000092, -5.3422857142857145]
[-14, -13.762431670863613, 0, "2023-05-16 09:59:36.829945", 0.16500000000000092, -5.3422857142857145]
[-14, -13.761981624809241, 0, "2023-05-16 09:59:37.840198", 0.16500000000000092, -5.3422857142857145]
[-14, -13.76153158727847, 0, "2023-05-16 09:59:38.850467", 0.16500000000000092, -5.3422857142857145]
[-14, -13.761081558271135, 0, "2023-05-16 09:59:39.864906", 0.16500000000000092, -5.3422857142857145]
[-14, -13.760631537787077, 0, "2023-05-16 09:59:40.873121", 0.16500000000000092, -5.3422857142857145]
[-14, -13.760181525826134, 0, "2023-05-16 09:59:41.880288", 0.16500000000000092, -5.3422857142857145]
[-14, -13.759731522388146, 0, "2023-05-16 09:59:42.893822", 0.16500000000000092, -5.3422857142857145]
[-14, -13.759281527472949, 0, "2023-05-16 09:59:43.903988", 0.16500000000000092, -5.3422857142857145]
[-14, -13.758831541080383, 0, "2023-05-16 09:59:44.911337", 0.16500000000000092, -5.3422857142857145]
[-14, -13.758381563210287, 0, "2023-05-16 09:59:45.920247", 0.16500000000000092, -5.3422857142857145]
[-14, -13.7579315938625, 0, "2023-05-16 09:59:46.925070", 0.16500000000000092, -5.3422857142857145]
[-14, -13.757481633036859, 0, "2023-05-16 09:59:47.933606", 0.16500000000000092, -5.3422857142857145]
[-14, -13.757031680733203, 0, "2023-05-16 09:59:48.943090", 0.16500000000000092, -5.3422857142857145]
[-14, -13.75658173695137, 0, "2023-05-16 09:59:49.949930", 0.16500000000000092, -5.3422857142857145]
[-14, -13.7561318016912, 0, "2023-05-16 09:59:50.962782", 0.16500000000000092, -5.3422857142857145]
[-14, -13.755681874952533, 0, "2023-05-16 09:59:51.971955", 0.16500000000000092, -5.3422857142857145]
[-14, -13.755231956735203, 0, "2023-05-16 09:59:52.986027", 0.16500000000000092, -5.3422857142857145]
[-14, -13.754782047039052, 0, "2023-05-16 09:59:53.994716", 0.16500000000000092, -5.3422857142857145]
[-14, -13.75433214586392, 0, "2023-05-16 09:59:55.003420", 0.16500000000000092, -5.3422857142857145]
[-14, -13.753882253209643, 0, "2023-05-16 09:59:56.008458", 0.16500000000000092, -5.3422857142857145]
[-14, -13.753432369076059, 0, "2023-05-16 09:59:57.014962", 0.16500000000000092, -5.3422857142857145]
[-14, -13.752982493463008, 0, "2023-05-16 09:59:58.025789", 0.16500000000000092, -5.3422857142857145]
[-14, -13.752532626370328, 0, "2023-05-16 09:59:59.036804", 0.16500000000000092, -5.3422857142857145]
[-14, -13.752082767797859, 0, "2023-05-16 10:00:00.047857", 0.16500000000000092, -5.3422857142857145]
[-14, -13.751632917745438, 0, "2023-05-16 10:00:01.053709", -0.49600000000000044, -6.785571428571428]
[-14, -13.751183076212905, 0, "2023-05-16 10:00:02.060488", -0.49600000000000044, -6.785571428571428]
[-14, -13.750733243200099, 0, "2023-05-16 10:00:03.070121", -0.49600000000000044, -6.785571428571428]
[-14, -13.750283418706855, 0, "2023-05-16 10:00:04.081261", -0.49600000000000044, -6.785571428571428]
[-14, -13.749833602733016, 0.2001331178135871, "2023-05-16 10:25:03.097246", -0.49600000000000044, -6.785571428571428]
[-14, -13.70585997430644, 0.23531202055484784, "2023-05-16 10:46:18.018693", -0.49600000000000044, -6.785571428571428]
[-14, -13.76256588443391, 0, "2023-05-16 10:46:19.022523", -0.49600000000000044, -6.785571428571428]
[-14, -13.762115835837614, 0, "2023-05-16 10:46:20.030949", -0.49600000000000044, -6.785571428571428]
[-14, -13.761665795764966, 0, "2023-05-16 10:46:21.046106", -0.49600000000000044, -6.785571428571428]
[-14, -13.761215764215804, 0, "2023-05-16 10:46:22.061188", -0.49600000000000044, -6.785571428571428]
[-14, -13.760765741189966, 0, "2023-05-16 10:46:23.074559", -0.49600000000000044, -6.785571428571428]
[-14, -13.760315726687292, 0, "2023-05-16 10:46:24.074996", -0.49600000000000044, -6.785571428571428]
[-14, -13.75986572070762, 0, "2023-05-16 10:46:25.088993", -0.49600000000000044, -6.785571428571428]
[-14, -13.759415723250788, 0, "2023-05-16 10:46:26.099555", -0.49600000000000044, -6.785571428571428]
[-14, -13.758965734316636, 0, "2023-05-16 10:46:27.111259", -0.49600000000000044, -6.785571428571428]
[-14, -13.758515753905002, 0, "2023-05-16 10:46:28.122529", -0.49600000000000044, -6.785571428571428]
[-14, -13.758065782015723, 0, "2023-05-16 10:46:29.124172", -0.49600000000000044, -6.785571428571428]
[-14, -13.75761581864864, 0, "2023-05-16 10:46:30.138408", -0.49600000000000044, -6.785571428571428]
[-14, -13.75716586380359, 0, "2023-05-16 10:46:31.152092", -0.49600000000000044, -6.785571428571428]
[-14, -13.756715917480411, 0, "2023-05-16 10:46:32.165200", -0.49600000000000044, -6.785571428571428]
[-14, -13.756265979678943, 0, "2023-05-16 10:46:33.178149", -0.49600000000000044, -6.785571428571428]
[-14, -13.755816050399025, 0, "2023-05-16 10:46:34.192882", -0.49600000000000044, -6.785571428571428]
[-14, -13.755366129640494, 0, "2023-05-16 10:46:35.195684", -0.49600000000000044, -6.785571428571428]
[-14, -13.75491621740319, 0, "2023-05-16 10:46:36.208044", -0.49600000000000044, -6.785571428571428]
[-14, -13.754466313686951, 0, "2023-05-16 10:46:37.221702", -0.49600000000000044, -6.785571428571428]
[-14, -13.754016418491616, 0, "2023-05-16 10:46:38.234870", -0.49600000000000044, -6.785571428571428]
[-14, -13.753566531817023, 0, "2023-05-16 10:46:39.246543", -0.49600000000000044, -6.785571428571428]
[-14, -13.753116653663012, 0, "2023-05-16 10:46:40.246951", -0.49600000000000044, -6.785571428571428]
[-14, -13.75266678402942, 0, "2023-05-16 10:46:41.257355", -0.49600000000000044, -6.785571428571428]
[-14, -13.752216922916087, 0, "2023-05-16 10:46:42.257528", -0.49600000000000044, -6.785571428571428]
[-14, -13.75176707032285, 0, "2023-05-16 10:46:43.269850", -0.49600000000000044, -6.785571428571428]
[-14, -13.751317226249549, 0, "2023-05-16 10:46:44.279706", -0.49600000000000044, -6.785571428571428]
[-14, -13.75086739069602, 0, "2023-05-16 10:46:45.287817", -0.49600000000000044, -6.785571428571428]
[-14, -13.750417563662106, 0, "2023-05-16 10:46:46.293676", -0.49600000000000044, -6.785571428571428]
[-14, -13.749967745147643, 0.20002580388188562, "2023-05-16 11:11:46.118709", 9.594000000000001, -8.59142857142857]
[-14, -13.705542157569637, 0.23556627394429058, "2023-05-16 11:32:59.660053", 9.594000000000001, -8.59142857142857]
[-14, -13.76270387478483, 0, "2023-05-16 11:33:00.666726", 9.594000000000001, -8.59142857142857]
[-14, -13.76225382357508, 0, "2023-05-16 11:33:01.681837", 9.594000000000001, -8.59142857142857]
[-14, -13.761803780889027, 0, "2023-05-16 11:33:02.692334", 9.594000000000001, -8.59142857142857]
[-14, -13.76135374672651, 0, "2023-05-16 11:33:03.704321", 9.594000000000001, -8.59142857142857]
[-14, -13.760903721087367, 0, "2023-05-16 11:33:04.716505", 9.594000000000001, -8.59142857142857]
[-14, -13.760453703971438, 0, "2023-05-16 11:33:05.725953", 9.594000000000001, -8.59142857142857]
[-14, -13.76000369537856, 0, "2023-05-16 11:33:06.729081", 9.594000000000001, -8.59142857142857]
[-14, -13.759553695308572, 0, "2023-05-16 11:33:07.741867", 9.594000000000001, -8.59142857142857]
[-14, -13.759103703761312, 0, "2023-05-16 11:33:08.755316", 9.594000000000001, -8.59142857142857]
[-14, -13.75865372073662, 0, "2023-05-16 11:33:09.767844", 9.594000000000001, -8.59142857142857]
[-14, -13.758203746234333, 0, "2023-05-16 11:33:10.779750", 9.594000000000001, -8.59142857142857]
[-14, -13.75775378025429, 0, "2023-05-16 11:33:11.791112", 9.594000000000001, -8.59142857142857]
[-14, -13.757303822796331, 0, "2023-05-16 11:33:12.804162", 9.594000000000001, -8.59142857142857]
[-14, -13.756853873860294, 0, "2023-05-16 11:33:13.804182", 9.594000000000001, -8.59142857142857]
[-14, -13.756403933446016, 0, "2023-05-16 11:33:14.815128", 9.594000000000001, -8.59142857142857]
[-14, -13.755954001553338, 0, "2023-05-16 11:33:15.826091", 9.594000000000001, -8.59142857142857]
[-14, -13.755504078182096, 0, "2023-05-16 11:33:16.835686", 9.594000000000001, -8.59142857142857]
[-14, -13.75505416333213, 0, "2023-05-16 11:33:17.846969", 9.594000000000001, -8.59142857142857]
[-14, -13.754604257003278, 0, "2023-05-16 11:33:18.857223", 9.594000000000001, -8.59142857142857]
[-14, -13.75415435919538, 0, "2023-05-16 11:33:19.865884", 9.594000000000001, -8.59142857142857]
[-14, -13.753704469908275, 0, "2023-05-16 11:33:20.874984", 9.594000000000001, -8.59142857142857]
[-14, -13.753254589141799, 0, "2023-05-16 11:33:21.887216", 9.594000000000001, -8.59142857142857]
[-14, -13.752804716895792, 0, "2023-05-16 11:33:22.898027", 9.594000000000001, -8.59142857142857]
[-14, -13.752354853170093, 0, "2023-05-16 11:33:23.905542", 9.594000000000001, -8.59142857142857]
[-14, -13.751904997964541, 0, "2023-05-16 11:33:24.915749", 9.594000000000001, -8.59142857142857]
[-14, -13.751455151278973, 0, "2023-05-16 11:33:25.928615", 9.594000000000001, -8.59142857142857]
[-14, -13.751005313113229, 0, "2023-05-16 11:33:26.940810", 9.594000000000001, -8.59142857142857]
[-14, -13.750555483467148, 0, "2023-05-16 11:33:27.953568", 9.594000000000001, -8.59142857142857]
[-14, -13.750105662340566, 0, "2023-05-16 11:33:28.967299", 9.594000000000001, -8.59142857142857]
[-14, -13.749655849733324, 0.20027532021334055, "2023-05-16 11:58:26.925667", -2.566, -8.59142857142857]
[-14, -13.70613515266885, 0.23509187786492022, "2023-05-16 12:19:43.034852", -7.8759999999999994, -12.30042857142857]
[-14, -13.762386025414727, 0, "2023-05-16 12:19:44.049681", -7.8759999999999994, -12.30042857142857]
[-14, -13.761935980224852, 0, "2023-05-16 12:19:45.062529", -7.8759999999999994, -12.30042857142857]
[-14, -13.76148594355856, 0, "2023-05-16 12:19:46.076954", -7.8759999999999994, -12.30042857142857]
[-14, -13.76103591541569, 0, "2023-05-16 12:19:47.077961", -7.8759999999999994, -12.30042857142857]
[-14, -13.76058589579608, 0, "2023-05-16 12:19:48.090028", -7.8759999999999994, -12.30042857142857]
[-14, -13.760135884699569, 0, "2023-05-16 12:19:49.101734", -7.8759999999999994, -12.30042857142857]
[-14, -13.759685882125995, 0, "2023-05-16 12:19:50.116685", -7.8759999999999994, -12.30042857142857]
[-14, -13.759235888075196, 0, "2023-05-16 12:19:51.119501", -7.8759999999999994, -12.30042857142857]
[-14, -13.758785902547013, 0, "2023-05-16 12:19:52.128964", -7.8759999999999994, -12.30042857142857]
[-14, -13.758335925541283, 0, "2023-05-16 12:19:53.142521", -7.8759999999999994, -12.30042857142857]
[-14, -13.757885957057844, 0, "2023-05-16 12:19:54.155925", -7.8759999999999994, -12.30042857142857]
[-14, -13.757435997096536, 0, "2023-05-16 12:19:55.166847", -7.8759999999999994, -12.30042857142857]
[-14, -13.756986045657197, 0, "2023-05-16 12:19:56.177526", -7.8759999999999994, -12.30042857142857]
[-14, -13.756536102739664, 0, "2023-05-16 12:19:57.189734", -7.8759999999999994, -12.30042857142857]
[-14, -13.75608616834378, 0, "2023-05-16 12:19:58.203517", -7.8759999999999994, -12.30042857142857]
[-14, -13.755636242469379, 0, "2023-05-16 12:19:59.216458", -7.8759999999999994, -12.30042857142857]
[-14, -13.755186325116302, 0, "2023-05-16 12:20:00.230806", -7.8759999999999994, -12.30042857142857]
[-14, -13.754736416284388, 0, "2023-05-16 12:20:01.239157", -7.8759999999999994, -12.30042857142857]
[-14, -13.754286515973472, 0, "2023-05-16 12:20:02.252613", -7.8759999999999994, -12.30042857142857]
[-14, -13.753836624183398, 0, "2023-05-16 12:20:03.260535", -7.8759999999999994, -12.30042857142857]
[-14, -13.753386740914001, 0, "2023-05-16 12:20:04.275099", -7.8759999999999994, -12.30042857142857]
[-14, -13.75293686616512, 0, "2023-05-16 12:20:05.289004", -7.8759999999999994, -12.30042857142857]
[-14, -13.752486999936595, 0, "2023-05-16 12:20:06.291833", -7.8759999999999994, -12.30042857142857]
[-14, -13.752037142228263, 0, "2023-05-16 12:20:07.302385", -7.8759999999999994, -12.30042857142857]
[-14, -13.751587293039963, 0, "2023-05-16 12:20:08.314121", -7.8759999999999994, -12.30042857142857]
[-14, -13.751137452371534, 0, "2023-05-16 12:20:09.324955", -7.8759999999999994, -12.30042857142857]
[-14, -13.750687620222815, 0, "2023-05-16 12:20:10.338003", -7.8759999999999994, -12.30042857142857]
[-14, -13.750237796593643, 0, "2023-05-16 12:20:11.348171", -7.8759999999999994, -12.30042857142857]
[-14, -13.749787981483859, 0.20016961481291276, "2023-05-16 12:45:10.100657", -7.8759999999999994, -12.30042857142857]
[-14, -13.704634702741084, 0.23629223780713318, "2023-05-16 13:06:19.729991", -0.4249999999999998, -4.6488571428571435]
[-14, -13.76361306027999, 0, "2023-05-16 13:06:20.742628", -0.4249999999999998, -4.6488571428571435]
[-14, -13.763162991850818, 0, "2023-05-16 13:06:21.757138", -0.4249999999999998, -4.6488571428571435]
[-14, -13.76271293194567, 0, "2023-05-16 13:06:22.768340", -0.4249999999999998, -4.6488571428571435]
[-14, -13.762262880564382, 0, "2023-05-16 13:06:23.782001", -0.4249999999999998, -4.6488571428571435]
[-14, -13.761812837706795, 0, "2023-05-16 13:06:24.793091", -0.4249999999999998, -4.6488571428571435]
[-14, -13.761362803372748, 0, "2023-05-16 13:06:25.805551", -0.4249999999999998, -4.6488571428571435]
[-14, -13.760912777562078, 0, "2023-05-16 13:06:26.817482", -0.4249999999999998, -4.6488571428571435]
[-14, -13.760462760274624, 0, "2023-05-16 13:06:27.829667", -0.4249999999999998, -4.6488571428571435]
[-14, -13.760012751510224, 0, "2023-05-16 13:06:28.840604", -0.4249999999999998, -4.6488571428571435]
[-14, -13.759562751268719, 0, "2023-05-16 13:06:29.853570", -0.4249999999999998, -4.6488571428571435]
[-14, -13.759112759549945, 0, "2023-05-16 13:06:30.867066", -0.4249999999999998, -4.6488571428571435]
[-14, -13.758662776353741, 0, "2023-05-16 13:06:31.877717", -0.4249999999999998, -4.6488571428571435]
[-14, -13.758212801679948, 0, "2023-05-16 13:06:32.892457", -0.4249999999999998, -4.6488571428571435]
[-14, -13.7577628355284, 0, "2023-05-16 13:06:33.905556", -0.4249999999999998, -4.6488571428571435]
[-14, -13.757312877898938, 0, "2023-05-16 13:06:34.916842", -0.4249999999999998, -4.6488571428571435]
[-14, -13.756862928791403, 0, "2023-05-16 13:06:35.925876", -0.4249999999999998, -4.6488571428571435]
[-14, -13.75641298820563, 0, "2023-05-16 13:06:36.937618", -0.4249999999999998, -4.6488571428571435]
[-14, -13.755963056141459, 0, "2023-05-16 13:06:37.937963", -0.4249999999999998, -4.6488571428571435]
[-14, -13.755513132598729, 0, "2023-05-16 13:06:38.948512", -0.4249999999999998, -4.6488571428571435]
[-14, -13.755063217577279, 0, "2023-05-16 13:06:39.955142", -0.4249999999999998, -4.6488571428571435]
[-14, -13.754613311076946, 0, "2023-05-16 13:06:40.967693", -0.4249999999999998, -4.6488571428571435]
[-14, -13.75416341309757, 0, "2023-05-16 13:06:41.981275", -0.4249999999999998, -4.6488571428571435]
[-14, -13.75371352363899, 0, "2023-05-16 13:06:42.992117", -0.4249999999999998, -4.6488571428571435]
[-14, -13.753263642701041, 0, "2023-05-16 13:06:43.993211", -0.4249999999999998, -4.6488571428571435]
[-14, -13.752813770283566, 0, "2023-05-16 13:06:45.007814", -0.4249999999999998, -4.6488571428571435]
[-14, -13.752363906386401, 0, "2023-05-16 13:06:46.020132", -0.4249999999999998, -4.6488571428571435]
[-14, -13.751914051009386, 0, "2023-05-16 13:06:47.033748", -0.4249999999999998, -4.6488571428571435]
[-14, -13.75146420415236, 0, "2023-05-16 13:06:48.035575", -0.4249999999999998, -4.6488571428571435]
[-14, -13.75101436581516, 0, "2023-05-16 13:06:49.048421", -0.4249999999999998, -4.6488571428571435]
[-14, -13.750564535997626, 0, "2023-05-16 13:06:50.064589", -0.4249999999999998, -4.6488571428571435]
[-14, -13.750114714699595, 0, "2023-05-16 13:06:51.078166", -0.4249999999999998, -4.6488571428571435]
[-14, -13.749664901920909, 0.20026807846327302, "2023-05-16 13:31:49.082865", -0.4249999999999998, -4.6488571428571435]
[-14, -13.706144003789833, 0.23508479696813397, "2023-05-16 13:53:05.244409", -0.4249999999999998, -4.6488571428571435]
[-14, -13.762394716071263, 0, "2023-05-16 13:53:06.254020", -0.4249999999999998, -4.6488571428571435]
[-14, -13.761944670716792, 0, "2023-05-16 13:53:07.263234", -0.4249999999999998, -4.6488571428571435]
[-14, -13.761494633885908, 0, "2023-05-16 13:53:08.274623", -0.4249999999999998, -4.6488571428571435]
[-14, -13.761044605578448, 0, "2023-05-16 13:53:09.284949", -0.4249999999999998, -4.6488571428571435]
[-14, -13.760594585794252, 0, "2023-05-16 13:53:10.296102", -0.4249999999999998, -4.6488571428571435]
[-14, -13.760144574533157, 0, "2023-05-16 13:53:11.306260", -0.4249999999999998, -4.6488571428571435]
[-14, -13.759694571795004, 0, "2023-05-16 13:53:12.319170", -0.4249999999999998, -4.6488571428571435]
[-14, -13.75924457757963, 0, "2023-05-16 13:53:13.331305", -0.4249999999999998, -4.6488571428571435]
[-14, -13.758794591886872, 0, "2023-05-16 13:53:14.343320", -0.4249999999999998, -4.6488571428571435]
[-14, -13.75834461471657, 0, "2023-05-16 13:53:15.353647", -0.4249999999999998, -4.6488571428571435]
[-14, -13.757894646068564, 0, "2023-05-16 13:53:16.368578", -0.4249999999999998, -4.6488571428571435]
[-14, -13.757444685942692, 0, "2023-05-16 13:53:17.381120", -0.4249999999999998, -4.6488571428571435]
[-14, -13.756994734338791, 0, "2023-05-16 13:53:18.388446", -0.4249999999999998, -4.6488571428571435]
[-14, -13.756544791256701, 0, "2023-05-16 13:53:19.399490", -0.4249999999999998, -4.6488571428571435]
[-14, -13.75609485669626, 0, "2023-05-16 13:53:20.414730", -0.4249999999999998, -4.6488571428571435]
[-14, -13.755644930657308, 0, "2023-05-16 13:53:21.429244", -0.4249999999999998, -4.6488571428571435]
[-14, -13.755195013139682, 0, "2023-05-16 13:53:22.442629", -0.4249999999999998, -4.6488571428571435]
[-14, -13.75474510414322, 0, "2023-05-16 13:53:23.454193", -0.4249999999999998, -4.6488571428571435]
[-14, -13.754295203667763, 0, "2023-05-16 13:53:24.466647", -0.4249999999999998, -4.6488571428571435]
[-14, -13.753845311713148, 0, "2023-05-16 13:53:25.472450", -0.4249999999999998, -4.6488571428571435]
[-14, -13.753395428279214, 0, "2023-05-16 13:53:26.486909", -0.4249999999999998, -4.6488571428571435]
[-14, -13.7529455533658, 0, "2023-05-16 13:53:27.497079", -0.4249999999999998, -4.6488571428571435]
[-14, -13.752495686972743, 0, "2023-05-16 13:53:28.510563", -0.4249999999999998, -4.6488571428571435]
[-14, -13.752045829099885, 0, "2023-05-16 13:53:29.526161", -0.4249999999999998, -4.6488571428571435]
[-14, -13.75159597974706, 0, "2023-05-16 13:53:30.538793", -0.4249999999999998, -4.6488571428571435]
[-14, -13.75114613891411, 0, "2023-05-16 13:53:31.543206", -0.4249999999999998, -4.6488571428571435]
[-14, -13.750696306600874, 0, "2023-05-16 13:53:32.549861", -0.4249999999999998, -4.6488571428571435]
[-14, -13.750246482807189, 0, "2023-05-16 13:53:33.563795", -0.4249999999999998, -4.6488571428571435]
[-14, -13.749796667532893, 0.2001626659736857, "2023-05-16 14:18:32.361073", -0.4159999999999999, -1.4181428571428571]
[-14, -13.705374886255775, 0.2357000909953797, "2023-05-16 14:39:45.180381", -0.4159999999999999, -1.4181428571428571]
[-14, -13.76298968638076, 0, "2023-05-16 14:39:46.197497", -0.4159999999999999, -1.4181428571428571]
[-14, -13.762539629757912, 0, "2023-05-16 14:39:47.215104", -0.4159999999999999, -1.4181428571428571]
[-14, -13.762089581658863, 0, "2023-05-16 14:39:48.221194", -0.4159999999999999, -1.4181428571428571]
[-14, -13.761639542083453, 0, "2023-05-16 14:39:49.228868", -0.4159999999999999, -1.4181428571428571]
[-14, -13.76118951103152, 0, "2023-05-16 14:39:50.240009", -0.4159999999999999, -1.4181428571428571]
[-14, -13.760739488502901, 0, "2023-05-16 14:39:51.247745", -0.4159999999999999, -1.4181428571428571]
[-14, -13.760289474497437, 0, "2023-05-16 14:39:52.258106", -0.4159999999999999, -1.4181428571428571]
[-14, -13.759839469014965, 0, "2023-05-16 14:39:53.269450", -0.4159999999999999, -1.4181428571428571]
[-14, -13.759389472055325, 0, "2023-05-16 14:39:54.280465", -0.4159999999999999, -1.4181428571428571]
[-14, -13.758939483618354, 0, "2023-05-16 14:39:55.292323", -0.4159999999999999, -1.4181428571428571]
[-14, -13.758489503703892, 0, "2023-05-16 14:39:56.301370", -0.4159999999999999, -1.4181428571428571]
[-14, -13.758039532311777, 0, "2023-05-16 14:39:57.303611", -0.4159999999999999, -1.4181428571428571]
[-14, -13.757589569441848, 0, "2023-05-16 14:39:58.318918", -0.4159999999999999, -1.4181428571428571]
[-14, -13.757139615093942, 0, "2023-05-16 14:39:59.328626", -0.4159999999999999, -1.4181428571428571]
[-14, -13.7566896692679, 0, "2023-05-16 14:40:00.349200", -0.4159999999999999, -1.4181428571428571]
[-14, -13.756239731963557, 0, "2023-05-16 14:40:01.373997", -0.4159999999999999, -1.4181428571428571]
[-14, -13.755789803180756, 0, "2023-05-16 14:40:02.394367", -0.4159999999999999, -1.4181428571428571]
[-14, -13.755339882919332, 0, "2023-05-16 14:40:03.397305", -0.4159999999999999, -1.4181428571428571]
[-14, -13.754889971179125, 0, "2023-05-16 14:40:04.406484", -0.4159999999999999, -1.4181428571428571]
[-14, -13.754440067959974, 0, "2023-05-16 14:40:05.416727", -0.4159999999999999, -1.4181428571428571]
[-14, -13.753990173261718, 0, "2023-05-16 14:40:06.428885", -0.4159999999999999, -1.4181428571428571]
[-14, -13.753540287084194, 0, "2023-05-16 14:40:07.436728", -0.4159999999999999, -1.4181428571428571]
[-14, -13.75309040942724, 0, "2023-05-16 14:40:08.438721", -0.4159999999999999, -1.4181428571428571]
[-14, -13.752640540290699, 0, "2023-05-16 14:40:09.446865", -0.4159999999999999, -1.4181428571428571]
[-14, -13.752190679674406, 0, "2023-05-16 14:40:10.456379", -0.4159999999999999, -1.4181428571428571]
[-14, -13.7517408275782, 0, "2023-05-16 14:40:11.462824", -0.4159999999999999, -1.4181428571428571]
[-14, -13.751290984001919, 0, "2023-05-16 14:40:12.470107", -0.4159999999999999, -1.4181428571428571]
[-14, -13.750841148945405, 0, "2023-05-16 14:40:13.476653", -0.4159999999999999, -1.4181428571428571]
[-14, -13.750391322408493, 0, "2023-05-16 14:40:14.477973", -0.4159999999999999, -1.4181428571428571]
[-14, -13.749941504391023, 0.20004679648718168, "2023-05-16 15:05:14.140383", -5.1160000000000005, -2.1465714285714284]
[-14, -13.707595093173802, 0.23392392546095808, "2023-05-16 15:26:36.632624", -5.1160000000000005, -2.1465714285714284]
[-14, -13.760669170878707, 0, "2023-05-16 15:26:37.642070", -5.1160000000000005, -2.1465714285714284]
[-14, -13.760219158205016, 0, "2023-05-16 15:26:38.657235", -5.1160000000000005, -2.1465714285714284]
[-14, -13.759769154054293, 0, "2023-05-16 15:26:39.670439", -5.1160000000000005, -2.1465714285714284]
[-14, -13.759319158426376, 0, "2023-05-16 15:26:40.672017", -5.1160000000000005, -2.1465714285714284]
[-14, -13.758869171321102, 0, "2023-05-16 15:26:41.677751", -5.1160000000000005, -2.1465714285714284]
[-14, -13.758419192738312, 0, "2023-05-16 15:26:42.689129", -5.1160000000000005, -2.1465714285714284]
[-14, -13.757969222677843, 0, "2023-05-16 15:26:43.696833", -5.1160000000000005, -2.1465714285714284]
[-14, -13.757519261139535, 0, "2023-05-16 15:26:44.705986", -5.1160000000000005, -2.1465714285714284]
[-14, -13.757069308123226, 0, "2023-05-16 15:26:45.718253", -5.1160000000000005, -2.1465714285714284]
[-14, -13.756619363628754, 0, "2023-05-16 15:26:46.727616", -5.1160000000000005, -2.1465714285714284]
[-14, -13.756169427655959, 0, "2023-05-16 15:26:47.741439", -5.1160000000000005, -2.1465714285714284]
[-14, -13.755719500204677, 0, "2023-05-16 15:26:48.751581", -5.1160000000000005, -2.1465714285714284]
[-14, -13.75526958127475, 0, "2023-05-16 15:26:49.762615", -5.1160000000000005, -2.1465714285714284]
[-14, -13.754819670866013, 0, "2023-05-16 15:26:50.773652", -5.1160000000000005, -2.1465714285714284]
[-14, -13.754369768978307, 0, "2023-05-16 15:26:51.784456", -5.1160000000000005, -2.1465714285714284]
[-14, -13.753919875611471, 0, "2023-05-16 15:26:52.792577", -5.1160000000000005, -2.1465714285714284]
[-14, -13.753469990765343, 0, "2023-05-16 15:26:53.799886", -5.1160000000000005, -2.1465714285714284]
[-14, -13.75302011443976, 0, "2023-05-16 15:26:54.805495", -5.1160000000000005, -2.1465714285714284]
[-14, -13.752570246634562, 0, "2023-05-16 15:26:55.812920", -5.1160000000000005, -2.1465714285714284]
[-14, -13.752120387349589, 0, "2023-05-16 15:26:56.825604", -5.1160000000000005, -2.1465714285714284]
[-14, -13.751670536584676, 0, "2023-05-16 15:26:57.831517", -5.1160000000000005, -2.1465714285714284]
[-14, -13.751220694339665, 0, "2023-05-16 15:26:58.845260", -5.1160000000000005, -2.1465714285714284]
[-14, -13.750770860614393, 0, "2023-05-16 15:26:59.853819", -5.1160000000000005, -2.1465714285714284]
[-14, -13.7503210354087, 0, "2023-05-16 15:27:00.861691", -5.1160000000000005, -2.1465714285714284]
[-14, -13.749871218722422, 0.20010302502206231, "2023-05-16 15:52:00.102735", -5.1160000000000005, -2.1465714285714284]
[-14, -13.705896754075379, 0.23528259673969673, "2023-05-16 16:13:15.195968", -2.583, 1.0557142857142856]
[-14, -13.762601998096107, 0, "2023-05-16 16:13:16.206641", -2.583, 1.0557142857142856]
[-14, -13.76215194881584, 0, "2023-05-16 16:13:17.217056", -2.583, 1.0557142857142856]
[-14, -13.761701908059234, 0, "2023-05-16 16:13:18.229482", -2.583, 1.0557142857142856]
[-14, -13.761251875826126, 0, "2023-05-16 16:13:19.242891", -2.583, 1.0557142857142856]
[-14, -13.760801852116357, 0, "2023-05-16 16:13:20.251023", -2.583, 1.0557142857142856]
[-14, -13.760351836929765, 0, "2023-05-16 16:13:21.257488", -2.583, 1.0557142857142856]
[-14, -13.759901830266186, 0, "2023-05-16 16:13:22.264615", -2.583, 1.0557142857142856]
[-14, -13.75945183212546, 0, "2023-05-16 16:13:23.273610", -2.583, 1.0557142857142856]
[-14, -13.759001842507427, 0, "2023-05-16 16:13:24.283939", -2.583, 1.0557142857142856]
[-14, -13.758551861411926, 0, "2023-05-16 16:13:25.294937", -2.583, 1.0557142857142856]
[-14, -13.758101888838793, 0, "2023-05-16 16:13:26.304181", -2.583, 1.0557142857142856]
[-14, -13.757651924787869, 0, "2023-05-16 16:13:27.313396", -2.583, 1.0557142857142856]
[-14, -13.75720196925899, 0, "2023-05-16 16:13:28.321003", -2.583, 1.0557142857142856]
[-14, -13.756752022251996, 0, "2023-05-16 16:13:29.333305", -2.583, 1.0557142857142856]
[-14, -13.756302083766727, 0, "2023-05-16 16:13:30.342600", -2.583, 1.0557142857142856]
[-14, -13.75585215380302, 0, "2023-05-16 16:13:31.346786", -2.583, 1.0557142857142856]
[-14, -13.755402232360712, 0, "2023-05-16 16:13:32.359051", -2.583, 1.0557142857142856]
[-14, -13.754952319439644, 0, "2023-05-16 16:13:33.366641", -2.583, 1.0557142857142856]
[-14, -13.754502415039655, 0, "2023-05-16 16:13:34.375896", -2.583, 1.0557142857142856]
[-14, -13.754052519160583, 0, "2023-05-16 16:13:35.387214", -2.583, 1.0557142857142856]
[-14, -13.753602631802265, 0, "2023-05-16 16:13:36.398935", -2.583, 1.0557142857142856]
[-14, -13.75315275296454, 0, "2023-05-16 16:13:37.414172", -2.583, 1.0557142857142856]
[-14, -13.752702882647249, 0, "2023-05-16 16:13:38.427415", -2.583, 1.0557142857142856]
[-14, -13.75225302085023, 0, "2023-05-16 16:13:39.441049", -2.583, 1.0557142857142856]
[-14, -13.75180316757332, 0, "2023-05-16 16:13:40.445143", -2.583, 1.0557142857142856]
[-14, -13.751353322816358, 0, "2023-05-16 16:13:41.454939", -2.583, 1.0557142857142856]
[-14, -13.750903486579183, 0, "2023-05-16 16:13:42.465035", -2.583, 1.0557142857142856]
[-14, -13.750453658861634, 0, "2023-05-16 16:13:43.478258", -2.583, 1.0557142857142856]
[-14, -13.750003839663549, 0, "2023-05-16 16:13:44.486431", -2.583, 1.0557142857142856]
[-14, -13.749554028984768, 0.20035677681218544, "2023-05-16 16:38:41.826530", -2.583, 1.0557142857142856]
[-14, -13.706484580006451, 0.23481233599483886, "2023-05-16 16:59:59.447992", -2.583, 1.0557142857142856]
[-14, -13.761829023034737, 0, "2023-05-16 17:00:00.458021", -2.583, 1.0557142857142856]
[-14, -13.76137898839415, 0, "2023-05-16 17:00:01.463884", 2.926, 1.2791428571428571]
[-14, -13.760928962276944, 0, "2023-05-16 17:00:02.476276", 2.926, 1.2791428571428571]
[-14, -13.760478944682962, 0, "2023-05-16 17:00:03.482451", 2.926, 1.2791428571428571]
[-14, -13.76002893561204, 0, "2023-05-16 17:00:04.496161", 2.926, 1.2791428571428571]
[-14, -13.759578935064017, 0, "2023-05-16 17:00:05.509693", 2.926, 1.2791428571428571]
[-14, -13.759128943038732, 0, "2023-05-16 17:00:06.523645", 2.926, 1.2791428571428571]
[-14, -13.758678959536024, 0, "2023-05-16 17:00:07.534498", 2.926, 1.2791428571428571]
[-14, -13.75822898455573, 0, "2023-05-16 17:00:08.550166", 2.926, 1.2791428571428571]
[-14, -13.75777901809769, 0, "2023-05-16 17:00:09.562761", 15.086, 1.2791428571428571]
[-14, -13.75732906016174, 0, "2023-05-16 17:00:10.571139", 15.086, 1.2791428571428571]
[-14, -13.756879110747722, 0, "2023-05-16 17:00:11.582981", 15.086, 1.2791428571428571]
[-14, -13.756429169855473, 0, "2023-05-16 17:00:12.595436", 15.086, 1.2791428571428571]
[-14, -13.755979237484832, 0, "2023-05-16 17:00:13.605233", 15.086, 1.2791428571428571]
[-14, -13.755529313635638, 0, "2023-05-16 17:00:14.618356", 15.086, 1.2791428571428571]
[-14, -13.755079398307728, 0, "2023-05-16 17:00:15.630362", 15.086, 1.2791428571428571]
[-14, -13.754629491500943, 0, "2023-05-16 17:00:16.641885", 15.086, 1.2791428571428571]
[-14, -13.754179593215119, 0, "2023-05-16 17:00:17.654457", 15.086, 1.2791428571428571]
[-14, -13.753729703450096, 0, "2023-05-16 17:00:18.665960", 15.086, 1.2791428571428571]
[-14, -13.753279822205712, 0, "2023-05-16 17:00:19.672304", 15.086, 1.2791428571428571]
[-14, -13.752829949481807, 0, "2023-05-16 17:00:20.684178", 15.086, 1.2791428571428571]
[-14, -13.752380085278219, 0, "2023-05-16 17:00:21.696612", 15.086, 1.2791428571428571]
[-14, -13.751930229594786, 0, "2023-05-16 17:00:22.706665", 15.086, 1.2791428571428571]
[-14, -13.751480382431346, 0, "2023-05-16 17:00:23.714501", 15.086, 1.2791428571428571]
[-14, -13.75103054378774, 0, "2023-05-16 17:00:24.728225", 15.086, 1.2791428571428571]
[-14, -13.750580713663805, 0, "2023-05-16 17:00:25.740443", 15.086, 1.2791428571428571]
[-14, -13.75013089205938, 0, "2023-05-16 17:00:26.751995", 15.086, 1.2791428571428571]
[-14, -13.749681078974303, 0.20025513682055732, "2023-05-16 17:25:24.856267", 9.234, 1.2791428571428571]
[-14, -13.704530174743024, 0.23637586020558105, "2023-05-16 17:46:34.037579", 15.086, 1.2791428571428571]
[-14, -13.763960490644841, 0, "2023-05-16 17:46:35.039136", 15.086, 1.2791428571428571]
[-14, -13.76351041563555, 0, "2023-05-16 17:46:36.048949", 15.086, 1.2791428571428571]
[-14, -13.763060349150404, 0, "2023-05-16 17:46:37.056176", 15.086, 1.2791428571428571]
[-14, -13.762610291189246, 0, "2023-05-16 17:46:38.070587", 15.086, 1.2791428571428571]
[-14, -13.762160241751912, 0, "2023-05-16 17:46:39.077252", 15.086, 1.2791428571428571]
[-14, -13.761710200838243, 0, "2023-05-16 17:46:40.079051", 15.086, 1.2791428571428571]
[-14, -13.761260168448075, 0, "2023-05-16 17:46:41.090280", 15.086, 1.2791428571428571]
[-14, -13.760810144581248, 0, "2023-05-16 17:46:42.104535", 15.086, 1.2791428571428571]
[-14, -13.7603601292376, 0, "2023-05-16 17:46:43.117734", 15.086, 1.2791428571428571]
[-14, -13.75991012241697, 0, "2023-05-16 17:46:44.118034", 15.086, 1.2791428571428571]
[-14, -13.759460124119197, 0, "2023-05-16 17:46:45.132375", 15.086, 1.2791428571428571]
[-14, -13.75901013434412, 0, "2023-05-16 17:46:46.142868", 15.086, 1.2791428571428571]
[-14, -13.758560153091576, 0, "2023-05-16 17:46:47.156074", 15.086, 1.2791428571428571]
[-14, -13.758110180361404, 0, "2023-05-16 17:46:48.165085", 15.086, 1.2791428571428571]
[-14, -13.757660216153443, 0, "2023-05-16 17:46:49.179417", 15.086, 1.2791428571428571]
[-14, -13.75721026046753, 0, "2023-05-16 17:46:50.188909", 15.086, 1.2791428571428571]
[-14, -13.756760313303507, 0, "2023-05-16 17:46:51.204093", 15.086, 1.2791428571428571]
[-14, -13.75631037466121, 0, "2023-05-16 17:46:52.218413", 15.086, 1.2791428571428571]
[-14, -13.755860444540478, 0, "2023-05-16 17:46:53.232494", 15.086, 1.2791428571428571]
[-14, -13.75541052294115, 0, "2023-05-16 17:46:54.242700", 15.086, 1.2791428571428571]
[-14, -13.754960609863064, 0, "2023-05-16 17:46:55.255026", 15.086, 1.2791428571428571]
[-14, -13.754510705306059, 0, "2023-05-16 17:46:56.266446", 15.086, 1.2791428571428571]
[-14, -13.754060809269973, 0, "2023-05-16 17:46:57.280627", 15.086, 1.2791428571428571]
[-14, -13.753610921754646, 0, "2023-05-16 17:46:58.294617", 15.086, 1.2791428571428571]
[-14, -13.753161042759915, 0, "2023-05-16 17:46:59.306963", 15.086, 1.2791428571428571]
[-14, -13.75271117228562, 0, "2023-05-16 17:47:00.308698", 15.086, 1.2791428571428571]
[-14, -13.7522613103316, 0, "2023-05-16 17:47:01.323606", 15.086, 1.2791428571428571]
[-14, -13.751811456897691, 0, "2023-05-16 17:47:02.338581", 15.086, 1.2791428571428571]
[-14, -13.751361611983734, 0, "2023-05-16 17:47:03.353402", 15.086, 1.2791428571428571]
[-14, -13.750911775589568, 0, "2023-05-16 17:47:04.366480", 15.086, 1.2791428571428571]
[-14, -13.75046194771503, 0, "2023-05-16 17:47:05.375472", 15.086, 1.2791428571428571]
[-14, -13.750012128359959, 0, "2023-05-16 17:47:06.383072", 15.086, 1.2791428571428571]
[-14, -13.749562317524195, 0.20035014598064438, "2023-05-16 18:12:03.787806", 9.065, 2.791714285714286]
[-14, -13.706043697991024, 0.23516504160718057, "2023-05-16 18:33:19.511951", 15.255, 2.791714285714286]
[-14, -13.762296228744255, 0, "2023-05-16 18:33:20.514178", 15.255, 2.791714285714286]
[-14, -13.761846185255074, 0, "2023-05-16 18:33:21.515993", 15.255, 2.791714285714286]
[-14, -13.761396150289444, 0, "2023-05-16 18:33:22.528195", 15.255, 2.791714285714286]
[-14, -13.760946123847203, 0, "2023-05-16 18:33:23.534601", 15.255, 2.791714285714286]
[-14, -13.76049610592819, 0, "2023-05-16 18:33:24.546628", 15.255, 2.791714285714286]
[-14, -13.760046096532244, 0, "2023-05-16 18:33:25.561904", 15.255, 2.791714285714286]
[-14, -13.759596095659203, 0, "2023-05-16 18:33:26.573017", 15.255, 2.791714285714286]
[-14, -13.759146103308908, 0, "2023-05-16 18:33:27.586186", 15.255, 2.791714285714286]
[-14, -13.758696119481193, 0, "2023-05-16 18:33:28.604372", 15.255, 2.791714285714286]
[-14, -13.7582461441759, 0, "2023-05-16 18:33:29.613472", 15.255, 2.791714285714286]
[-14, -13.757796177392866, 0, "2023-05-16 18:33:30.615211", 15.255, 2.791714285714286]
[-14, -13.75734621913193, 0, "2023-05-16 18:33:31.630086", 15.255, 2.791714285714286]
[-14, -13.756896269392932, 0, "2023-05-16 18:33:32.642521", 15.255, 2.791714285714286]
[-14, -13.75644632817571, 0, "2023-05-16 18:33:33.655959", 15.255, 2.791714285714286]
[-14, -13.7559963954801, 0, "2023-05-16 18:33:34.657642", 15.255, 2.791714285714286]
[-14, -13.755546471305943, 0, "2023-05-16 18:33:35.659043", 15.255, 2.791714285714286]
[-14, -13.755096555653077, 0, "2023-05-16 18:33:36.660341", 15.255, 2.791714285714286]
[-14, -13.75464664852134, 0, "2023-05-16 18:33:37.671826", 15.255, 2.791714285714286]
[-14, -13.754196749910573, 0, "2023-05-16 18:33:38.672021", 15.255, 2.791714285714286]
[-14, -13.753746859820613, 0, "2023-05-16 18:33:39.686980", 15.255, 2.791714285714286]
[-14, -13.753296978251297, 0, "2023-05-16 18:33:40.687527", 15.255, 2.791714285714286]
[-14, -13.752847105202466, 0, "2023-05-16 18:33:41.698607", 15.255, 2.791714285714286]
[-14, -13.75239724067396, 0, "2023-05-16 18:33:42.701826", 15.255, 2.791714285714286]
[-14, -13.751947384665613, 0, "2023-05-16 18:33:43.710861", 15.255, 2.791714285714286]
[-14, -13.751497537177267, 0, "2023-05-16 18:33:44.725498", 15.255, 2.791714285714286]
[-14, -13.75104769820876, 0, "2023-05-16 18:33:45.734380", 15.255, 2.791714285714286]
[-14, -13.75059786775993, 0, "2023-05-16 18:33:46.748289", 15.255, 2.791714285714286]
[-14, -13.750148045830617, 0, "2023-05-16 18:33:47.761423", 15.255, 2.791714285714286]
[-14, -13.749698232420657, 0.20024141406347412, "2023-05-16 18:58:45.975655", 9.065, 2.791714285714286]
[-14, -13.70572761333741, 0.2354179093300715, "2023-05-16 19:20:00.316302", 15.891, 2.673142857142857]
[-14, -13.762435920612306, 0, "2023-05-16 19:20:01.330409", 15.891, 2.673142857142857]
[-14, -13.761985874477446, 0, "2023-05-16 19:20:02.343026", 15.891, 2.673142857142857]
[-14, -13.761535836866187, 0, "2023-05-16 19:20:03.347739", 15.891, 2.673142857142857]
[-14, -13.761085807778368, 0, "2023-05-16 19:20:04.361792", 15.891, 2.673142857142857]
[-14, -13.760635787213827, 0, "2023-05-16 19:20:05.370226", 15.891, 2.673142857142857]
[-14, -13.760185775172403, 0, "2023-05-16 19:20:06.383422", 15.891, 2.673142857142857]
[-14, -13.759735771653933, 0, "2023-05-16 19:20:07.399781", 15.891, 2.673142857142857]
[-14, -13.759285776658258, 0, "2023-05-16 19:20:08.409441", 15.891, 2.673142857142857]
[-14, -13.758835790185215, 0, "2023-05-16 19:20:09.422750", 15.891, 2.673142857142857]
[-14, -13.758385812234643, 0, "2023-05-16 19:20:10.435722", 15.891, 2.673142857142857]
[-14, -13.757935842806381, 0, "2023-05-16 19:20:11.447817", 15.891, 2.673142857142857]
[-14, -13.757485881900267, 0, "2023-05-16 19:20:12.459322", 15.891, 2.673142857142857]
[-14, -13.75703592951614, 0, "2023-05-16 19:20:13.460456", 15.891, 2.673142857142857]
[-14, -13.756585985653839, 0, "2023-05-16 19:20:14.473909", 15.891, 2.673142857142857]
[-14, -13.756136050313202, 0, "2023-05-16 19:20:15.478141", 15.891, 2.673142857142857]
[-14, -13.755686123494067, 0, "2023-05-16 19:20:16.481262", 15.891, 2.673142857142857]
[-14, -13.755236205196274, 0, "2023-05-16 19:20:17.493972", 15.891, 2.673142857142857]
[-14, -13.754786295419661, 0, "2023-05-16 19:20:18.505710", 15.891, 2.673142857142857]
[-14, -13.754336394164067, 0, "2023-05-16 19:20:19.517924", 15.891, 2.673142857142857]
[-14, -13.75388650142933, 0, "2023-05-16 19:20:20.530021", 15.891, 2.673142857142857]
[-14, -13.753436617215288, 0, "2023-05-16 19:20:21.541321", 15.891, 2.673142857142857]
[-14, -13.752986741521779, 0, "2023-05-16 19:20:22.549734", 15.891, 2.673142857142857]
[-14, -13.752536874348644, 0, "2023-05-16 19:20:23.559283", 15.891, 2.673142857142857]
[-14, -13.752087015695722, 0, "2023-05-16 19:20:24.570699", 15.891, 2.673142857142857]
[-14, -13.75163716556285, 0, "2023-05-16 19:20:25.583025", 15.891, 2.673142857142857]
[-14, -13.751187323949866, 0, "2023-05-16 19:20:26.593810", 15.891, 2.673142857142857]
[-14, -13.75073749085661, 0, "2023-05-16 19:20:27.604665", 15.891, 2.673142857142857]
[-14, -13.750287666282919, 0, "2023-05-16 19:20:28.618838", 15.891, 2.673142857142857]
[-14, -13.749837850228634, 0.20012971981709315, "2023-05-16 19:45:27.672890", 3.731, 2.673142857142857]
[-14, -13.70586412737835, 0.23530869809732025, "2023-05-16 20:06:42.608683", 2.778, 2.9421428571428576]
[-14, -13.762119913617282, 0, "2023-05-16 20:06:43.624106", 2.778, 2.9421428571428576]
[-14, -13.761669873467403, 0, "2023-05-16 20:06:44.637355", 2.778, 2.9421428571428576]
[-14, -13.761219841841012, 0, "2023-05-16 20:06:45.650511", 2.778, 2.9421428571428576]
[-14, -13.760769818737947, 0, "2023-05-16 20:06:46.663819", 2.778, 2.9421428571428576]
[-14, -13.760319804158046, 0, "2023-05-16 20:06:47.673359", 2.778, 2.9421428571428576]
[-14, -13.75986979810115, 0, "2023-05-16 20:06:48.686119", 2.778, 2.9421428571428576]
[-14, -13.759419800567095, 0, "2023-05-16 20:06:49.700620", 2.778, 2.9421428571428576]
[-14, -13.75896981155572, 0, "2023-05-16 20:06:50.714753", 2.778, 2.9421428571428576]
[-14, -13.758519831066865, 0, "2023-05-16 20:06:51.728499", 2.778, 2.9421428571428576]
[-14, -13.758069859100367, 0, "2023-05-16 20:06:52.732427", 2.778, 2.9421428571428576]
[-14, -13.757619895656065, 0, "2023-05-16 20:06:53.737990", 2.778, 2.9421428571428576]
[-14, -13.7571699407338, 0, "2023-05-16 20:06:54.741826", 2.778, 2.9421428571428576]
[-14, -13.756719994333407, 0, "2023-05-16 20:06:55.757071", 2.778, 2.9421428571428576]
[-14, -13.756270056454726, 0, "2023-05-16 20:06:56.769467", 2.778, 2.9421428571428576]
[-14, -13.755820127097596, 0, "2023-05-16 20:06:57.771325", 2.778, 2.9421428571428576]
[-14, -13.755370206261857, 0, "2023-05-16 20:06:58.783199", 2.778, 2.9421428571428576]
[-14, -13.754920293947343, 0, "2023-05-16 20:06:59.793652", 2.778, 2.9421428571428576]
[-14, -13.754470390153898, 0, "2023-05-16 20:07:00.808347", 2.778, 2.9421428571428576]
[-14, -13.754020494881358, 0, "2023-05-16 20:07:01.819232", 2.778, 2.9421428571428576]
[-14, -13.75357060812956, 0, "2023-05-16 20:07:02.833266", 2.778, 2.9421428571428576]
[-14, -13.753120729898345, 0, "2023-05-16 20:07:03.842951", 2.778, 2.9421428571428576]
[-14, -13.752670860187552, 0, "2023-05-16 20:07:04.859029", 2.778, 2.9421428571428576]
[-14, -13.752220998997018, 0, "2023-05-16 20:07:05.871276", 2.778, 2.9421428571428576]
[-14, -13.751771146326583, 0, "2023-05-16 20:07:06.872416", 2.778, 2.9421428571428576]
[-14, -13.751321302176084, 0, "2023-05-16 20:07:07.881151", 2.778, 2.9421428571428576]
[-14, -13.75087146654536, 0, "2023-05-16 20:07:08.894669", 2.778, 2.9421428571428576]
[-14, -13.750421639434252, 0, "2023-05-16 20:07:09.908414", 2.778, 2.9421428571428576]
[-14, -13.749971820842596, 0.20002254332592317, "2023-05-16 20:32:09.753018", 2.778, 2.9421428571428576]
[-14, -13.705546142584563, 0.23556308593234976, "2023-05-16 20:53:23.314104", 2.778, 2.9421428571428576]
[-14, -13.762707787702515, 0, "2023-05-16 20:53:24.315385", 2.778, 2.9421428571428576]
[-14, -13.762257736418658, 0, "2023-05-16 20:53:25.325460", 2.778, 2.9421428571428576]
[-14, -13.761807693658499, 0, "2023-05-16 20:53:26.337478", 2.778, 2.9421428571428576]
[-14, -13.761357659421876, 0, "2023-05-16 20:53:27.347915", 2.778, 2.9421428571428576]
[-14, -13.760907633708628, 0, "2023-05-16 20:53:28.348275", 2.778, 2.9421428571428576]
[-14, -13.760457616518595, 0, "2023-05-16 20:53:29.348520", 2.778, 2.9421428571428576]
[-14, -13.760007607851616, 0, "2023-05-16 20:53:30.363648", 2.778, 2.9421428571428576]
[-14, -13.759557607707528, 0, "2023-05-16 20:53:31.366049", 2.778, 2.9421428571428576]
[-14, -13.759107616086169, 0, "2023-05-16 20:53:32.381227", 2.778, 2.9421428571428576]
[-14, -13.75865763298738, 0, "2023-05-16 20:53:33.394013", 2.778, 2.9421428571428576]
[-14, -13.758207658410997, 0, "2023-05-16 20:53:34.395462", 2.778, 2.9421428571428576]
[-14, -13.757757692356861, 0, "2023-05-16 20:53:35.396863", 2.778, 2.9421428571428576]
[-14, -13.75730773482481, 0, "2023-05-16 20:53:36.406569", 2.778, 2.9421428571428576]
[-14, -13.756857785814681, 0, "2023-05-16 20:53:37.418024", 2.778, 2.9421428571428576]
[-14, -13.756407845326313, 0, "2023-05-16 20:53:38.431596", 2.778, 2.9421428571428576]
[-14, -13.755957913359545, 0, "2023-05-16 20:53:39.445698", 2.778, 2.9421428571428576]
[-14, -13.755507989914216, 0, "2023-05-16 20:53:40.456991", 2.778, 2.9421428571428576]
[-14, -13.755058074990165, 0, "2023-05-16 20:53:41.457196", 2.778, 2.9421428571428576]
[-14, -13.75460816858723, 0, "2023-05-16 20:53:42.469912", 2.778, 2.9421428571428576]
[-14, -13.75415827070525, 0, "2023-05-16 20:53:43.483475", 2.778, 2.9421428571428576]
[-14, -13.753708381344063, 0, "2023-05-16 20:53:44.484902", 2.778, 2.9421428571428576]
[-14, -13.753258500503508, 0, "2023-05-16 20:53:45.488005", 2.778, 2.9421428571428576]
[-14, -13.752808628183422, 0, "2023-05-16 20:53:46.493042", 2.778, 2.9421428571428576]
[-14, -13.752358764383645, 0, "2023-05-16 20:53:47.505230", 2.778, 2.9421428571428576]
[-14, -13.751908909104017, 0, "2023-05-16 20:53:48.520415", 2.778, 2.9421428571428576]
[-14, -13.751459062344376, 0, "2023-05-16 20:53:49.532615", 2.778, 2.9421428571428576]
[-14, -13.751009224104559, 0, "2023-05-16 20:53:50.543312", 2.778, 2.9421428571428576]
[-14, -13.750559394384405, 0, "2023-05-16 20:53:51.554999", 2.778, 2.9421428571428576]
[-14, -13.750109573183753, 0, "2023-05-16 20:53:52.567011", 2.778, 2.9421428571428576]
[-14, -13.749659760502443, 0.20027219159804588, "2023-05-16 21:18:50.548419", 1.31, 2.324142857142857]
[-14, -13.705689996667385, 0.2354480026660923, "2023-05-16 21:40:04.739577", 1.31, 2.324142857142857]
[-14, -13.762849039164957, 0, "2023-05-16 21:40:05.740072", 1.31, 2.324142857142857]
[-14, -13.762398985205882, 0, "2023-05-16 21:40:06.753641", 1.31, 2.324142857142857]
[-14, -13.761948939770557, 0, "2023-05-16 21:40:07.765696", 1.31, 2.324142857142857]
[-14, -13.761498902858818, 0, "2023-05-16 21:40:08.780550", 1.31, 2.324142857142857]
[-14, -13.761048874470507, 0, "2023-05-16 21:40:09.782776", 1.31, 2.324142857142857]
[-14, -13.76059885460546, 0, "2023-05-16 21:40:10.798564", 1.31, 2.324142857142857]
[-14, -13.760148843263517, 0, "2023-05-16 21:40:11.813373", 1.31, 2.324142857142857]
[-14, -13.759698840444516, 0, "2023-05-16 21:40:12.826387", 1.31, 2.324142857142857]
[-14, -13.759248846148296, 0, "2023-05-16 21:40:13.840096", 1.31, 2.324142857142857]
[-14, -13.758798860374695, 0, "2023-05-16 21:40:14.848376", 1.31, 2.324142857142857]
[-14, -13.758348883123551, 0, "2023-05-16 21:40:15.855437", 1.31, 2.324142857142857]
[-14, -13.757898914394705, 0, "2023-05-16 21:40:16.868324", 1.31, 2.324142857142857]
[-14, -13.757448954187993, 0, "2023-05-16 21:40:17.880262", 1.31, 2.324142857142857]
[-14, -13.756999002503255, 0, "2023-05-16 21:40:18.891173", 1.31, 2.324142857142857]
[-14, -13.756549059340328, 0, "2023-05-16 21:40:19.903412", 1.31, 2.324142857142857]
[-14, -13.756099124699052, 0, "2023-05-16 21:40:20.911058", 1.31, 2.324142857142857]
[-14, -13.755649198579265, 0, "2023-05-16 21:40:21.921395", 1.31, 2.324142857142857]
[-14, -13.755199280980808, 0, "2023-05-16 21:40:22.936382", 1.31, 2.324142857142857]
[-14, -13.754749371903516, 0, "2023-05-16 21:40:23.943393", 1.31, 2.324142857142857]
[-14, -13.754299471347231, 0, "2023-05-16 21:40:24.947924", 1.31, 2.324142857142857]
[-14, -13.753849579311789, 0, "2023-05-16 21:40:25.962558", 1.31, 2.324142857142857]
[-14, -13.753399695797029, 0, "2023-05-16 21:40:26.973796", 1.31, 2.324142857142857]
[-14, -13.75294982080279, 0, "2023-05-16 21:40:27.983805", 1.31, 2.324142857142857]
[-14, -13.752499954328911, 0, "2023-05-16 21:40:28.999730", 1.31, 2.324142857142857]
[-14, -13.75205009637523, 0, "2023-05-16 21:40:30.009510", 1.31, 2.324142857142857]
[-14, -13.751600246941587, 0, "2023-05-16 21:40:31.019139", 1.31, 2.324142857142857]
[-14, -13.751150406027818, 0, "2023-05-16 21:40:32.031709", 1.31, 2.324142857142857]
[-14, -13.750700573633765, 0, "2023-05-16 21:40:33.033910", 1.31, 2.324142857142857]
[-14, -13.750250749759264, 0, "2023-05-16 21:40:34.048559", 1.31, 2.324142857142857]
[-14, -13.749800934404155, 0.2001592524766764, "2023-05-16 22:05:32.875021", 1.344, 2.277]
[-14, -13.705828032209338, 0.2353375742325298, "2023-05-16 22:26:48.065712", 3.5940000000000003, 2.277]
[-14, -13.762543726216654, 0, "2023-05-16 22:26:49.076516", 3.5940000000000003, 2.277]
[-14, -13.76209367804002, 0, "2023-05-16 22:26:50.087992", 3.5940000000000003, 2.277]
[-14, -13.761643638387028, 0, "2023-05-16 22:26:51.099323", 3.5940000000000003, 2.277]
[-14, -13.761193607257512, 0, "2023-05-16 22:26:52.112684", 3.5940000000000003, 2.277]
[-14, -13.760743584651314, 0, "2023-05-16 22:26:53.114103", 3.5940000000000003, 2.277]
[-14, -13.76029357056827, 0, "2023-05-16 22:26:54.122086", 3.5940000000000003, 2.277]
[-14, -13.759843565008222, 0, "2023-05-16 22:26:55.134660", 3.5940000000000003, 2.277]
[-14, -13.759393567971005, 0, "2023-05-16 22:26:56.145544", 3.5940000000000003, 2.277]
[-14, -13.75894357945646, 0, "2023-05-16 22:26:57.156444", 3.5940000000000003, 2.277]
[-14, -13.758493599464424, 0, "2023-05-16 22:26:58.167040", 3.5940000000000003, 2.277]
[-14, -13.758043627994738, 0, "2023-05-16 22:26:59.181193", 3.5940000000000003, 2.277]
[-14, -13.757593665047239, 0, "2023-05-16 22:27:00.189528", 3.5940000000000003, 2.277]
[-14, -13.757143710621763, 0, "2023-05-16 22:27:01.204946", 3.5940000000000003, 2.277]
[-14, -13.756693764718152, 0, "2023-05-16 22:27:02.216193", 3.5940000000000003, 2.277]
[-14, -13.756243827336245, 0, "2023-05-16 22:27:03.228729", 3.5940000000000003, 2.277]
[-14, -13.75579389847588, 0, "2023-05-16 22:27:04.243968", 3.5940000000000003, 2.277]
[-14, -13.755343978136892, 0, "2023-05-16 22:27:05.257507", 3.5940000000000003, 2.277]
[-14, -13.754894066319125, 0, "2023-05-16 22:27:06.265521", 3.5940000000000003, 2.277]
[-14, -13.754444163022415, 0, "2023-05-16 22:27:07.278696", 3.5940000000000003, 2.277]
[-14, -13.7539942682466, 0, "2023-05-16 22:27:08.293259", 3.5940000000000003, 2.277]
[-14, -13.75354438199152, 0, "2023-05-16 22:27:09.306763", 3.5940000000000003, 2.277]
[-14, -13.753094504257014, 0, "2023-05-16 22:27:10.306867", 3.5940000000000003, 2.277]
[-14, -13.752644635042918, 0, "2023-05-16 22:27:11.321171", 3.5940000000000003, 2.277]
[-14, -13.752194774349073, 0, "2023-05-16 22:27:12.331627", 3.5940000000000003, 2.277]
[-14, -13.751744922175316, 0, "2023-05-16 22:27:13.334137", 3.5940000000000003, 2.277]
[-14, -13.751295078521487, 0, "2023-05-16 22:27:14.347592", 3.5940000000000003, 2.277]
[-14, -13.750845243387424, 0, "2023-05-16 22:27:15.358683", 3.5940000000000003, 2.277]
[-14, -13.750395416772966, 0, "2023-05-16 22:27:16.360160", 3.5940000000000003, 2.277]
[-14, -13.74994559867795, 0.20004352105763987, "2023-05-16 22:52:16.047545", 1.344, 2.277]
[-14, -13.705520503836087, 0.23558359693113007, "2023-05-16 23:13:29.504137", 1.333, 2.3307142857142855]
[-14, -13.762682612812483, 0, "2023-05-16 23:13:30.513937", 1.333, 2.3307142857142855]
[-14, -13.762232562005423, 0, "2023-05-16 23:13:31.523897", 1.333, 2.3307142857142855]
[-14, -13.76178251972205, 0, "2023-05-16 23:13:32.526866", 1.333, 2.3307142857142855]
[-14, -13.761332485962207, 0, "2023-05-16 23:13:33.541028", 1.333, 2.3307142857142855]
[-14, -13.76088246072573, 0, "2023-05-16 23:13:34.553511", 1.333, 2.3307142857142855]
[-14, -13.760432444012459, 0, "2023-05-16 23:13:35.569065", 1.333, 2.3307142857142855]
[-14, -13.75998243582223, 0, "2023-05-16 23:13:36.583822", 1.333, 2.3307142857142855]
[-14, -13.759532436154885, 0, "2023-05-16 23:13:37.596236", 1.333, 2.3307142857142855]
[-14, -13.759082445010261, 0, "2023-05-16 23:13:38.607563", 1.333, 2.3307142857142855]
[-14, -13.758632462388196, 0, "2023-05-16 23:13:39.620471", 1.333, 2.3307142857142855]
[-14, -13.75818248828853, 0, "2023-05-16 23:13:40.629115", 1.333, 2.3307142857142855]
[-14, -13.7577325227111, 0, "2023-05-16 23:13:41.643576", 1.333, 2.3307142857142855]
[-14, -13.757282565655746, 0, "2023-05-16 23:13:42.647845", 1.333, 2.3307142857142855]
[-14, -13.756832617122306, 0, "2023-05-16 23:13:43.660266", 1.333, 2.3307142857142855]
[-14, -13.756382677110619, 0, "2023-05-16 23:13:44.674763", 1.333, 2.3307142857142855]
[-14, -13.755932745620521, 0, "2023-05-16 23:13:45.689666", 1.333, 2.3307142857142855]
[-14, -13.755482822651855, 0, "2023-05-16 23:13:46.701703", 1.333, 2.3307142857142855]
[-14, -13.755032908204456, 0, "2023-05-16 23:13:47.711320", 1.333, 2.3307142857142855]
[-14, -13.754583002278164, 0, "2023-05-16 23:13:48.721974", 1.333, 2.3307142857142855]
[-14, -13.754133104872817, 0, "2023-05-16 23:13:49.735977", 1.333, 2.3307142857142855]
[-14, -13.753683215988255, 0, "2023-05-16 23:13:50.747696", 1.333, 2.3307142857142855]
[-14, -13.753233335624316, 0, "2023-05-16 23:13:51.751602", 1.333, 2.3307142857142855]
[-14, -13.752783463780839, 0, "2023-05-16 23:13:52.755107", 1.333, 2.3307142857142855]
[-14, -13.75233360045766, 0, "2023-05-16 23:13:53.761540", 1.333, 2.3307142857142855]
[-14, -13.751883745654622, 0, "2023-05-16 23:13:54.777444", 1.333, 2.3307142857142855]
[-14, -13.75143389937156, 0, "2023-05-16 23:13:55.792831", 1.333, 2.3307142857142855]
[-14, -13.750984061608316, 0, "2023-05-16 23:13:56.806012", 1.333, 2.3307142857142855]
[-14, -13.750534232364725, 0, "2023-05-16 23:13:57.815321", 1.333, 2.3307142857142855]
[-14, -13.750084411640627, 0, "2023-05-16 23:13:58.824977", 1.333, 2.3307142857142855]
[-14, -13.749634599435861, 0.20029232045131096, "2023-05-16 23:38:56.653886", 1.333, 2.3307142857142855]
[-14, -13.707295010854725, 0.23416399131621973, "2023-05-17 00:00:17.833362", 1.333, 2.3307142857142855]
[-14, -13.76246084876333, 0, "2023-05-17 00:00:18.834739", 1.333, 2.3307142857142855]
[-14, -13.762010802156347, 0, "2023-05-17 00:00:19.838156", 1.333, 2.3307142857142855]
[-14, -13.761560764072973, 0, "2023-05-17 00:00:20.850408", 1.333, 2.3307142857142855]
[-14, -13.761110734513048, 0, "2023-05-17 00:00:21.853930", 1.333, 2.3307142857142855]
[-14, -13.76066071347641, 0, "2023-05-17 00:00:22.869093", 1.333, 2.3307142857142855]
[-14, -13.760210700962897, 0, "2023-05-17 00:00:23.883401", 1.333, 2.3307142857142855]
[-14, -13.759760696972348, 0, "2023-05-17 00:00:24.894378", 1.333, 2.3307142857142855]
[-14, -13.759310701504603, 0, "2023-05-17 00:00:25.895339", 1.333, 2.3307142857142855]
[-14, -13.758860714559498, 0, "2023-05-17 00:00:26.895896", 1.333, 2.3307142857142855]
[-14, -13.758410736136874, 0, "2023-05-17 00:00:27.908555", 1.333, 2.3307142857142855]
[-14, -13.757960766236568, 0, "2023-05-17 00:00:28.921093", 1.333, 2.3307142857142855]
[-14, -13.75751080485842, 0, "2023-05-17 00:00:29.936437", 1.333, 2.3307142857142855]
[-14, -13.757060852002267, 0, "2023-05-17 00:00:30.940059", 1.333, 2.3307142857142855]
[-14, -13.756610907667948, 0, "2023-05-17 00:00:31.942108", 1.333, 2.3307142857142855]
[-14, -13.756160971855303, 0, "2023-05-17 00:00:32.956037", 1.333, 2.3307142857142855]
[-14, -13.755711044564169, 0, "2023-05-17 00:00:33.968606", 1.333, 2.3307142857142855]
[-14, -13.755261125794386, 0, "2023-05-17 00:00:34.983594", 1.333, 2.3307142857142855]
[-14, -13.754811215545791, 0, "2023-05-17 00:00:35.998635", 1.333, 2.3307142857142855]
[-14, -13.754361313818224, 0, "2023-05-17 00:00:37.014040", 1.333, 2.3307142857142855]
[-14, -13.753911420611523, 0, "2023-05-17 00:00:38.016005", 1.333, 2.3307142857142855]
[-14, -13.753461535925526, 0, "2023-05-17 00:00:39.018866", 1.333, 2.3307142857142855]
[-14, -13.753011659760073, 0, "2023-05-17 00:00:40.034098", 1.333, 2.3307142857142855]
[-14, -13.752561792115001, 0, "2023-05-17 00:00:41.046830", 1.333, 2.3307142857142855]
[-14, -13.75211193299015, 0, "2023-05-17 00:00:42.048517", 1.333, 2.3307142857142855]
[-14, -13.751662082385359, 0, "2023-05-17 00:00:43.062284", 1.333, 2.3307142857142855]
[-14, -13.751212240300465, 0, "2023-05-17 00:00:44.064729", 1.333, 2.3307142857142855]
[-14, -13.750762406735307, 0, "2023-05-17 00:00:45.077159", 1.333, 2.3307142857142855]
[-14, -13.750312581689725, 0, "2023-05-17 00:00:46.079468", 1.333, 2.3307142857142855]
[-14, -13.749862765163556, 0.20010978786915531, "2023-05-17 00:25:47.125238", 1.333, 2.3307142857142855]
[-14, -13.705439513282203, 0.23564838937423788, "2023-05-17 00:47:00.224956", 1.333, 2.3307142857142855]
[-14, -13.762603087546628, 0, "2023-05-17 00:47:01.236925", 1.333, 2.3307142857142855]
[-14, -13.762153038245728, 0, "2023-05-17 00:47:02.238933", 1.333, 2.3307142857142855]
[-14, -13.761702997468488, 0, "2023-05-17 00:47:03.252616", 1.333, 2.3307142857142855]
[-14, -13.761252965214748, 0, "2023-05-17 00:47:04.266852", 1.333, 2.3307142857142855]
[-14, -13.760802941484346, 0, "2023-05-17 00:47:05.280891", 1.333, 2.3307142857142855]
[-14, -13.760352926277122, 0, "2023-05-17 00:47:06.292649", 1.333, 2.3307142857142855]
[-14, -13.759902919592912, 0, "2023-05-17 00:47:07.293935", 1.333, 2.3307142857142855]
[-14, -13.759452921431556, 0, "2023-05-17 00:47:08.302309", 1.333, 2.3307142857142855]
[-14, -13.759002931792892, 0, "2023-05-17 00:47:09.304928", 1.333, 2.3307142857142855]
[-14, -13.75855295067676, 0, "2023-05-17 00:47:10.320729", 1.333, 2.3307142857142855]
[-14, -13.758102978082997, 0, "2023-05-17 00:47:11.320884", 1.333, 2.3307142857142855]
[-14, -13.757653014011442, 0, "2023-05-17 00:47:12.332209", 1.333, 2.3307142857142855]
[-14, -13.757203058461934, 0, "2023-05-17 00:47:13.333739", 1.333, 2.3307142857142855]
[-14, -13.756753111434312, 0, "2023-05-17 00:47:14.348491", 1.333, 2.3307142857142855]
[-14, -13.756303172928414, 0, "2023-05-17 00:47:15.356052", 1.333, 2.3307142857142855]
[-14, -13.755853242944077, 0, "2023-05-17 00:47:16.357904", 1.333, 2.3307142857142855]
[-14, -13.755403321481143, 0, "2023-05-17 00:47:17.369136", 1.333, 2.3307142857142855]
[-14, -13.754953408539448, 0, "2023-05-17 00:47:18.374914", 1.333, 2.3307142857142855]
[-14, -13.754503504118832, 0, "2023-05-17 00:47:19.376118", 1.333, 2.3307142857142855]
[-14, -13.754053608219133, 0, "2023-05-17 00:47:20.376839", 1.333, 2.3307142857142855]
[-14, -13.75360372084019, 0, "2023-05-17 00:47:21.390853", 1.333, 2.3307142857142855]
[-14, -13.75315384198184, 0, "2023-05-17 00:47:22.396235", 1.333, 2.3307142857142855]
[-14, -13.752703971643923, 0, "2023-05-17 00:47:23.397140", 1.333, 2.3307142857142855]
[-14, -13.752254109826278, 0, "2023-05-17 00:47:24.408150", 1.333, 2.3307142857142855]
[-14, -13.751804256528743, 0, "2023-05-17 00:47:25.411481", 1.333, 2.3307142857142855]
[-14, -13.751354411751157, 0, "2023-05-17 00:47:26.412271", 1.333, 2.3307142857142855]
[-14, -13.750904575493358, 0, "2023-05-17 00:47:27.424343", 1.333, 2.3307142857142855]
[-14, -13.750454747755185, 0, "2023-05-17 00:47:28.428955", 1.333, 2.3307142857142855]
[-14, -13.750004928536478, 0, "2023-05-17 00:47:29.443433", 1.333, 2.3307142857142855]
[-14, -13.749555117837074, 0.20035590573034057, "2023-05-17 01:12:26.787873", 1.333, 2.3307142857142855]
[-14, -13.707666304999416, 0.2338669560004675, "2023-05-17 01:33:49.585470", 1.333, 2.3307142857142855]
[-14, -13.76028906841821, 0, "2023-05-17 01:33:50.598366", 1.333, 2.3307142857142855]
[-14, -13.75983906294343, 0, "2023-05-17 01:33:51.612222", 1.333, 2.3307142857142855]
[-14, -13.75938906599148, 0, "2023-05-17 01:33:52.625765", 1.333, 2.3307142857142855]
[-14, -13.7589390775622, 0, "2023-05-17 01:33:53.640848", 1.333, 2.3307142857142855]
[-14, -13.758489097655428, 0, "2023-05-17 01:33:54.656323", 1.333, 2.3307142857142855]
[-14, -13.758039126271003, 0, "2023-05-17 01:33:55.656767", 1.333, 2.3307142857142855]
[-14, -13.757589163408763, 0, "2023-05-17 01:33:56.659442", 1.333, 2.3307142857142855]
[-14, -13.757139209068548, 0, "2023-05-17 01:33:57.662699", 1.333, 2.3307142857142855]
[-14, -13.756689263250195, 0, "2023-05-17 01:33:58.676829", 1.333, 2.3307142857142855]
[-14, -13.756239325953542, 0, "2023-05-17 01:33:59.691065", 1.333, 2.3307142857142855]
[-14, -13.755789397178429, 0, "2023-05-17 01:34:00.705534", 1.333, 2.3307142857142855]
[-14, -13.755339476924695, 0, "2023-05-17 01:34:01.720653", 1.333, 2.3307142857142855]
[-14, -13.754889565192178, 0, "2023-05-17 01:34:02.733180", 1.333, 2.3307142857142855]
[-14, -13.754439661980715, 0, "2023-05-17 01:34:03.736657", 1.333, 2.3307142857142855]
[-14, -13.753989767290147, 0, "2023-05-17 01:34:04.740189", 1.333, 2.3307142857142855]
[-14, -13.753539881120311, 0, "2023-05-17 01:34:05.744830", 1.333, 2.3307142857142855]
[-14, -13.753090003471048, 0, "2023-05-17 01:34:06.759582", 1.333, 2.3307142857142855]
[-14, -13.752640134342194, 0, "2023-05-17 01:34:07.763377", 1.333, 2.3307142857142855]
[-14, -13.75219027373359, 0, "2023-05-17 01:34:08.778730", 1.333, 2.3307142857142855]
[-14, -13.75174042164507, 0, "2023-05-17 01:34:09.790753", 1.333, 2.3307142857142855]
[-14, -13.751290578076478, 0, "2023-05-17 01:34:10.803452", 1.333, 2.3307142857142855]
[-14, -13.75084074302765, 0, "2023-05-17 01:34:11.817922", 1.333, 2.3307142857142855]
[-14, -13.750390916498427, 0, "2023-05-17 01:34:12.831231", 1.333, 2.3307142857142855]
[-14, -13.749941098488645, 0.20004712120908438, "2023-05-17 01:59:12.485260", 1.333, 2.3307142857142855]
[-14, -13.70461817605854, 0.2363054591531679, "2023-05-17 02:20:22.037796", 1.333, 2.3307142857142855]
[-14, -13.76478336942608, 0, "2023-05-17 02:20:23.040058", 1.333, 2.3307142857142855]
[-14, -13.764333278831963, 0, "2023-05-17 02:20:24.054008", 1.333, 2.3307142857142855]
[-14, -13.763883196762288, 0, "2023-05-17 02:20:25.067304", 1.333, 2.3307142857142855]
[-14, -13.763433123216895, 0, "2023-05-17 02:20:26.080146", 1.333, 2.3307142857142855]
[-14, -13.762983058195623, 0, "2023-05-17 02:20:27.089587", 1.333, 2.3307142857142855]
[-14, -13.762533001698309, 0, "2023-05-17 02:20:28.103133", 1.333, 2.3307142857142855]
[-14, -13.762082953724791, 0, "2023-05-17 02:20:29.115762", 1.333, 2.3307142857142855]
[-14, -13.76163291427491, 0, "2023-05-17 02:20:30.128363", 1.333, 2.3307142857142855]
[-14, -13.761182883348503, 0, "2023-05-17 02:20:31.129293", 1.333, 2.3307142857142855]
[-14, -13.76073286094541, 0, "2023-05-17 02:20:32.143040", 1.333, 2.3307142857142855]
[-14, -13.760282847065469, 0, "2023-05-17 02:20:33.143669", 1.333, 2.3307142857142855]
[-14, -13.759832841708517, 0, "2023-05-17 02:20:34.147401", 1.333, 2.3307142857142855]
[-14, -13.759382844874395, 0, "2023-05-17 02:20:35.161346", 1.333, 2.3307142857142855]
[-14, -13.75893285656294, 0, "2023-05-17 02:20:36.176331", 1.333, 2.3307142857142855]
[-14, -13.75848287677399, 0, "2023-05-17 02:20:37.182244", 1.333, 2.3307142857142855]
[-14, -13.758032905507383, 0, "2023-05-17 02:20:38.193177", 1.333, 2.3307142857142855]
[-14, -13.75758294276296, 0, "2023-05-17 02:20:39.204186", 1.333, 2.3307142857142855]
[-14, -13.75713298854056, 0, "2023-05-17 02:20:40.204292", 1.333, 2.3307142857142855]
[-14, -13.75668304284002, 0, "2023-05-17 02:20:41.217079", 1.333, 2.3307142857142855]
[-14, -13.75623310566118, 0, "2023-05-17 02:20:42.218391", 1.333, 2.3307142857142855]
[-14, -13.755783177003876, 0, "2023-05-17 02:20:43.220775", 1.333, 2.3307142857142855]
[-14, -13.755333256867948, 0, "2023-05-17 02:20:44.226218", 1.333, 2.3307142857142855]
[-14, -13.754883345253234, 0, "2023-05-17 02:20:45.241674", 1.333, 2.3307142857142855]
[-14, -13.754433442159574, 0, "2023-05-17 02:20:46.257610", 1.333, 2.3307142857142855]
[-14, -13.753983547586806, 0, "2023-05-17 02:20:47.267899", 1.333, 2.3307142857142855]
[-14, -13.75353366153477, 0, "2023-05-17 02:20:48.269810", 1.333, 2.3307142857142855]
[-14, -13.753083784003302, 0, "2023-05-17 02:20:49.270550", 1.333, 2.3307142857142855]
[-14, -13.752633914992241, 0, "2023-05-17 02:20:50.275786", 1.333, 2.3307142857142855]
[-14, -13.752184054501427, 0, "2023-05-17 02:20:51.276332", 1.333, 2.3307142857142855]
[-14, -13.751734202530699, 0, "2023-05-17 02:20:52.282133", 1.333, 2.3307142857142855]
[-14, -13.751284359079893, 0, "2023-05-17 02:20:53.285034", 1.333, 2.3307142857142855]
[-14, -13.75083452414885, 0, "2023-05-17 02:20:54.295385", 1.333, 2.3307142857142855]
[-14, -13.750384697737408, 0, "2023-05-17 02:20:55.307990", 1.333, 2.3307142857142855]
[-14, -13.749934879845405, 0.20005209612367594, "2023-05-17 02:45:54.932254", 1.333, 2.3307142857142855]
[-14, -13.70579263747713, 0.23536589001829641, "2023-05-17 03:07:09.557702", 1.333, 2.3307142857142855]
[-14, -13.761149650658991, 0, "2023-05-17 03:07:10.566297", 1.333, 2.3307142857142855]
[-14, -13.760699628885304, 0, "2023-05-17 03:07:11.579861", 1.333, 2.3307142857142855]
[-14, -13.760249615634757, 0, "2023-05-17 03:07:12.581300", 1.333, 2.3307142857142855]
[-14, -13.759799610907189, 0, "2023-05-17 03:07:13.585465", 1.333, 2.3307142857142855]
[-14, -13.759349614702437, 0, "2023-05-17 03:07:14.598635", 1.333, 2.3307142857142855]
[-14, -13.758899627020341, 0, "2023-05-17 03:07:15.601551", 1.333, 2.3307142857142855]
[-14, -13.758449647860738, 0, "2023-05-17 03:07:16.604169", 1.333, 2.3307142857142855]
[-14, -13.757999677223468, 0, "2023-05-17 03:07:17.618744", 1.333, 2.3307142857142855]
[-14, -13.75754971510837, 0, "2023-05-17 03:07:18.632385", 1.333, 2.3307142857142855]
[-14, -13.757099761515281, 0, "2023-05-17 03:07:19.636540", 1.333, 2.3307142857142855]
[-14, -13.75664981644404, 0, "2023-05-17 03:07:20.650304", 1.333, 2.3307142857142855]
[-14, -13.756199879894487, 0, "2023-05-17 03:07:21.652704", 1.333, 2.3307142857142855]
[-14, -13.75574995186646, 0, "2023-05-17 03:07:22.656391", 1.333, 2.3307142857142855]
[-14, -13.755300032359795, 0, "2023-05-17 03:07:23.660371", 1.333, 2.3307142857142855]
[-14, -13.754850121374334, 0, "2023-05-17 03:07:24.674998", 1.333, 2.3307142857142855]
[-14, -13.754400218909915, 0, "2023-05-17 03:07:25.691177", 1.333, 2.3307142857142855]
[-14, -13.753950324966375, 0, "2023-05-17 03:07:26.704699", 1.333, 2.3307142857142855]
[-14, -13.753500439543554, 0, "2023-05-17 03:07:27.718948", 1.333, 2.3307142857142855]
[-14, -13.75305056264129, 0, "2023-05-17 03:07:28.723437", 1.333, 2.3307142857142855]
[-14, -13.752600694259423, 0, "2023-05-17 03:07:29.724308", 1.333, 2.3307142857142855]
[-14, -13.752150834397789, 0, "2023-05-17 03:07:30.727497", 1.333, 2.3307142857142855]
[-14, -13.751700983056228, 0, "2023-05-17 03:07:31.741412", 1.333, 2.3307142857142855]
[-14, -13.75125114023458, 0, "2023-05-17 03:07:32.742853", 1.333, 2.3307142857142855]
[-14, -13.750801305932681, 0, "2023-05-17 03:07:33.748546", 1.333, 2.3307142857142855]
[-14, -13.750351480150371, 0, "2023-05-17 03:07:34.751373", 1.333, 2.3307142857142855]
[-14, -13.74990166288749, 0.20007866969000787, "2023-05-17 03:32:34.181517", 1.333, 2.3307142857142855]
[-14, -13.705760161407682, 0.2353918708738547, "2023-05-17 03:53:48.675716", 1.333, 2.3307142857142855]
[-14, -13.761567794258156, 0, "2023-05-17 03:53:49.691013", 1.333, 2.3307142857142855]
[-14, -13.761117764565082, 0, "2023-05-17 03:53:50.706066", 1.333, 2.3307142857142855]
[-14, -13.760667743395299, 0, "2023-05-17 03:53:51.722166", 1.333, 2.3307142857142855]
[-14, -13.760217730748643, 0, "2023-05-17 03:53:52.733897", 1.333, 2.3307142857142855]
[-14, -13.759767726624954, 0, "2023-05-17 03:53:53.736125", 1.333, 2.3307142857142855]
[-14, -13.75931773102407, 0, "2023-05-17 03:53:54.736808", 1.333, 2.3307142857142855]
[-14, -13.758867743945832, 0, "2023-05-17 03:53:55.737610", 1.333, 2.3307142857142855]
[-14, -13.758417765390075, 0, "2023-05-17 03:53:56.742771", 1.333, 2.3307142857142855]
[-14, -13.75796779535664, 0, "2023-05-17 03:53:57.744810", 1.333, 2.3307142857142855]
[-14, -13.757517833845364, 0, "2023-05-17 03:53:58.745908", 1.333, 2.3307142857142855]
[-14, -13.757067880856088, 0, "2023-05-17 03:53:59.759387", 1.333, 2.3307142857142855]
[-14, -13.756617936388647, 0, "2023-05-17 03:54:00.759923", 1.333, 2.3307142857142855]
[-14, -13.756168000442882, 0, "2023-05-17 03:54:01.774196", 1.333, 2.3307142857142855]
[-14, -13.755718073018631, 0, "2023-05-17 03:54:02.776255", 1.333, 2.3307142857142855]
[-14, -13.755268154115733, 0, "2023-05-17 03:54:03.781006", 1.333, 2.3307142857142855]
[-14, -13.754818243734025, 0, "2023-05-17 03:54:04.799514", 1.333, 2.3307142857142855]
[-14, -13.754368341873349, 0, "2023-05-17 03:54:05.814791", 1.333, 2.3307142857142855]
[-14, -13.75391844853354, 0, "2023-05-17 03:54:06.828544", 1.333, 2.3307142857142855]
[-14, -13.753468563714438, 0, "2023-05-17 03:54:07.837909", 1.333, 2.3307142857142855]
[-14, -13.753018687415883, 0, "2023-05-17 03:54:08.852818", 1.333, 2.3307142857142855]
[-14, -13.752568819637712, 0, "2023-05-17 03:54:09.867034", 1.333, 2.3307142857142855]
[-14, -13.752118960379764, 0, "2023-05-17 03:54:10.879488", 1.333, 2.3307142857142855]
[-14, -13.75166910964188, 0, "2023-05-17 03:54:11.880388", 1.333, 2.3307142857142855]
[-14, -13.751219267423894, 0, "2023-05-17 03:54:12.881532", 1.333, 2.3307142857142855]
[-14, -13.750769433725647, 0, "2023-05-17 03:54:13.882908", 1.333, 2.3307142857142855]
[-14, -13.75031960854698, 0, "2023-05-17 03:54:14.883775", 1.333, 2.3307142857142855]
[-14, -13.749869791887727, 0.20010416648981819, "2023-05-17 04:19:14.117689", 1.333, 2.3307142857142855]
[-14, -13.706626971066138, 0.23469842314708986, "2023-05-17 04:40:32.363515", 1.333, 2.3307142857142855]
[-14, -13.762255037297228, 0, "2023-05-17 04:40:33.375216", 1.333, 2.3307142857142855]
[-14, -13.761804994588188, 0, "2023-05-17 04:40:34.388976", 1.333, 2.3307142857142855]
[-14, -13.761354960402684, 0, "2023-05-17 04:40:35.400681", 1.333, 2.3307142857142855]
[-14, -13.760904934740555, 0, "2023-05-17 04:40:36.415271", 1.333, 2.3307142857142855]
[-14, -13.76045491760164, 0, "2023-05-17 04:40:37.415681", 1.333, 2.3307142857142855]
[-14, -13.760004908985776, 0, "2023-05-17 04:40:38.428971", 1.333, 2.3307142857142855]
[-14, -13.759554908892802, 0, "2023-05-17 04:40:39.434375", 1.333, 2.3307142857142855]
[-14, -13.759104917322558, 0, "2023-05-17 04:40:40.436782", 1.333, 2.3307142857142855]
[-14, -13.758654934274881, 0, "2023-05-17 04:40:41.436823", 1.333, 2.3307142857142855]
[-14, -13.75820495974961, 0, "2023-05-17 04:40:42.442211", 1.333, 2.3307142857142855]
[-14, -13.757754993746586, 0, "2023-05-17 04:40:43.444832", 1.333, 2.3307142857142855]
[-14, -13.757305036265643, 0, "2023-05-17 04:40:44.446170", 1.333, 2.3307142857142855]
[-14, -13.756855087306624, 0, "2023-05-17 04:40:45.447590", 1.333, 2.3307142857142855]
[-14, -13.756405146869364, 0, "2023-05-17 04:40:46.451473", 1.333, 2.3307142857142855]
[-14, -13.755955214953703, 0, "2023-05-17 04:40:47.455484", 1.333, 2.3307142857142855]
[-14, -13.75550529155948, 0, "2023-05-17 04:40:48.456594", 1.333, 2.3307142857142855]
[-14, -13.755055376686533, 0, "2023-05-17 04:40:49.458766", 1.333, 2.3307142857142855]
[-14, -13.754605470334702, 0, "2023-05-17 04:40:50.473955", 1.333, 2.3307142857142855]
[-14, -13.754155572503825, 0, "2023-05-17 04:40:51.478671", 1.333, 2.3307142857142855]
[-14, -13.75370568319374, 0, "2023-05-17 04:40:52.494146", 1.333, 2.3307142857142855]
[-14, -13.753255802404285, 0, "2023-05-17 04:40:53.500577", 1.333, 2.3307142857142855]
[-14, -13.752805930135299, 0, "2023-05-17 04:40:54.512680", 1.333, 2.3307142857142855]
[-14, -13.752356066386621, 0, "2023-05-17 04:40:55.516271", 1.333, 2.3307142857142855]
[-14, -13.751906211158092, 0, "2023-05-17 04:40:56.526890", 1.333, 2.3307142857142855]
[-14, -13.751456364449547, 0, "2023-05-17 04:40:57.539721", 1.333, 2.3307142857142855]
[-14, -13.751006526260827, 0, "2023-05-17 04:40:58.545630", 1.333, 2.3307142857142855]
[-14, -13.750556696591769, 0, "2023-05-17 04:40:59.545741", 1.333, 2.3307142857142855]
[-14, -13.750106875442212, 0, "2023-05-17 04:41:00.551768", 1.333, 2.3307142857142855]
[-14, -13.749657062811995, 0.20027434975040423, "2023-05-17 05:05:58.520500", 1.333, 2.3307142857142855]
[-14, -13.704789424748075, 0.23625847389742144, "2023-05-17 05:27:08.326768", 1.333, 2.3307142857142855]
[-14, -13.764501435645034, 0, "2023-05-17 05:27:09.329515", 1.333, 2.3307142857142855]
[-14, -13.76405135039057, 0, "2023-05-17 05:27:10.330119", 1.333, 2.3307142857142855]
[-14, -13.763601273660448, 0, "2023-05-17 05:27:11.333658", 1.333, 2.3307142857142855]
[-14, -13.763151205454507, 0, "2023-05-17 05:27:12.335994", 1.333, 2.3307142857142855]
[-14, -13.762701145772585, 0, "2023-05-17 05:27:13.349970", 1.333, 2.3307142857142855]
[-14, -13.762251094614522, 0, "2023-05-17 05:27:14.355222", 1.333, 2.3307142857142855]
[-14, -13.761801051980154, 0, "2023-05-17 05:27:15.370419", 1.333, 2.3307142857142855]
[-14, -13.761351017869321, 0, "2023-05-17 05:27:16.378030", 1.333, 2.3307142857142855]
[-14, -13.760900992281861, 0, "2023-05-17 05:27:17.379072", 1.333, 2.3307142857142855]
[-14, -13.760450975217614, 0, "2023-05-17 05:27:18.395570", 1.333, 2.3307142857142855]
[-14, -13.760000966676417, 0, "2023-05-17 05:27:19.398136", 1.333, 2.3307142857142855]
[-14, -13.759550966658109, 0, "2023-05-17 05:27:20.400026", 1.333, 2.3307142857142855]
[-14, -13.759100975162529, 0, "2023-05-17 05:27:21.404423", 1.333, 2.3307142857142855]
[-14, -13.758650992189514, 0, "2023-05-17 05:27:22.408792", 1.333, 2.3307142857142855]
[-14, -13.758201017738905, 0, "2023-05-17 05:27:23.413652", 1.333, 2.3307142857142855]
[-14, -13.757751051810539, 0, "2023-05-17 05:27:24.415679", 1.333, 2.3307142857142855]
[-14, -13.757301094404255, 0, "2023-05-17 05:27:25.429269", 1.333, 2.3307142857142855]
[-14, -13.75685114551989, 0, "2023-05-17 05:27:26.429868", 1.333, 2.3307142857142855]
[-14, -13.756401205157285, 0, "2023-05-17 05:27:27.432568", 1.333, 2.3307142857142855]
[-14, -13.755951273316278, 0, "2023-05-17 05:27:28.446100", 1.333, 2.3307142857142855]
[-14, -13.755501349996708, 0, "2023-05-17 05:27:29.448585", 1.333, 2.3307142857142855]
[-14, -13.755051435198412, 0, "2023-05-17 05:27:30.452739", 1.333, 2.3307142857142855]
[-14, -13.754601528921231, 0, "2023-05-17 05:27:31.453057", 1.333, 2.3307142857142855]
[-14, -13.754151631165001, 0, "2023-05-17 05:27:32.460425", 1.333, 2.3307142857142855]
[-14, -13.753701741929563, 0, "2023-05-17 05:27:33.463215", 1.333, 2.3307142857142855]
[-14, -13.753251861214753, 0, "2023-05-17 05:27:34.476860", 1.333, 2.3307142857142855]
[-14, -13.752801989020412, 0, "2023-05-17 05:27:35.477717", 1.333, 2.3307142857142855]
[-14, -13.752352125346377, 0, "2023-05-17 05:27:36.493245", 1.333, 2.3307142857142855]
[-14, -13.751902270192488, 0, "2023-05-17 05:27:37.508482", 1.333, 2.3307142857142855]
[-14, -13.751452423558582, 0, "2023-05-17 05:27:38.509998", 1.333, 2.3307142857142855]
[-14, -13.7510025854445, 0, "2023-05-17 05:27:39.513527", 1.333, 2.3307142857142855]
[-14, -13.750552755850078, 0, "2023-05-17 05:27:40.516068", 1.333, 2.3307142857142855]
[-14, -13.750102934775157, 0, "2023-05-17 05:27:41.528742", 1.333, 2.3307142857142855]
[-14, -13.749653122219573, 0.20027750222434124, "2023-05-17 05:52:39.470487", 1.333, 2.3307142857142855]
[-14, -13.70641512608751, 0.234867899129992, "2023-05-17 06:13:56.800689", 1.333, 2.3307142857142855]
[-14, -13.760860772673567, 0, "2023-05-17 06:13:57.803418", 1.333, 2.3307142857142855]
[-14, -13.760410756371055, 0, "2023-05-17 06:13:58.806041", 1.333, 2.3307142857142855]
[-14, -13.759960748591578, 0, "2023-05-17 06:13:59.820737", 1.333, 2.3307142857142855]
[-14, -13.759510749334975, 0, "2023-05-17 06:14:00.836127", 1.333, 2.3307142857142855]
[-14, -13.759060758601086, 0, "2023-05-17 06:14:01.849514", 1.333, 2.3307142857142855]
[-14, -13.758610776389748, 0, "2023-05-17 06:14:02.852567", 1.333, 2.3307142857142855]
[-14, -13.758160802700802, 0, "2023-05-17 06:14:03.853877", 1.333, 2.3307142857142855]
[-14, -13.757710837534084, 0, "2023-05-17 06:14:04.867176", 1.333, 2.3307142857142855]
[-14, -13.757260880889435, 0, "2023-05-17 06:14:05.873752", 1.333, 2.3307142857142855]
[-14, -13.75681093276669, 0, "2023-05-17 06:14:06.886254", 1.333, 2.3307142857142855]
[-14, -13.756360993165691, 0, "2023-05-17 06:14:07.896045", 1.333, 2.3307142857142855]
[-14, -13.755911062086275, 0, "2023-05-17 06:14:08.897491", 1.333, 2.3307142857142855]
[-14, -13.75546113952828, 0, "2023-05-17 06:14:09.899624", 1.333, 2.3307142857142855]
[-14, -13.755011225491547, 0, "2023-05-17 06:14:10.915992", 1.333, 2.3307142857142855]
[-14, -13.754561319975913, 0, "2023-05-17 06:14:11.927222", 1.333, 2.3307142857142855]
[-14, -13.754111422981216, 0, "2023-05-17 06:14:12.931038", 1.333, 2.3307142857142855]
[-14, -13.753661534507296, 0, "2023-05-17 06:14:13.944573", 1.333, 2.3307142857142855]
[-14, -13.753211654553992, 0, "2023-05-17 06:14:14.947035", 1.333, 2.3307142857142855]
[-14, -13.75276178312114, 0, "2023-05-17 06:14:15.959325", 1.333, 2.3307142857142855]
[-14, -13.752311920208582, 0, "2023-05-17 06:14:16.974088", 1.333, 2.3307142857142855]
[-14, -13.751862065816153, 0, "2023-05-17 06:14:17.989921", 1.333, 2.3307142857142855]
[-14, -13.751412219943695, 0, "2023-05-17 06:14:19.006158", 1.333, 2.3307142857142855]
[-14, -13.750962382591045, 0, "2023-05-17 06:14:20.012605", 1.333, 2.3307142857142855]
[-14, -13.75051255375804, 0, "2023-05-17 06:14:21.014136", 1.333, 2.3307142857142855]
[-14, -13.750062733444523, 0, "2023-05-17 06:14:22.027028", 1.333, 2.3307142857142855]
[-14, -13.749612921650328, 0.20039517853403296, "2023-05-17 06:39:19.089772", 1.333, 2.3307142857142855]
[-14, -13.706824813578173, 0.23456580389375037, "2023-05-17 07:00:38.062283", 1.333, 2.3307142857142855]
[-14, -13.761999228284667, 0, "2023-05-17 07:00:39.072706", 1.333, 2.3307142857142855]
[-14, -13.761549190420496, 0, "2023-05-17 07:00:40.078310", 1.333, 2.3307142857142855]
[-14, -13.761099161079768, 0, "2023-05-17 07:00:41.090431", 1.333, 2.3307142857142855]
[-14, -13.760649140262323, 0, "2023-05-17 07:00:42.092446", 1.333, 2.3307142857142855]
[-14, -13.760199127968, 0, "2023-05-17 07:00:43.104854", 1.333, 2.3307142857142855]
[-14, -13.759749124196638, 0, "2023-05-17 07:00:44.109954", 1.333, 2.3307142857142855]
[-14, -13.759299128948074, 0, "2023-05-17 07:00:45.123813", 1.333, 2.3307142857142855]
[-14, -13.758849142222147, 0, "2023-05-17 07:00:46.126341", 1.333, 2.3307142857142855]
[-14, -13.758399164018696, 0, "2023-05-17 07:00:47.145317", 1.333, 2.3307142857142855]
[-14, -13.75794919433756, 0, "2023-05-17 07:00:48.154524", 1.333, 2.3307142857142855]
[-14, -13.757499233178576, 0, "2023-05-17 07:00:49.155877", 1.333, 2.3307142857142855]
[-14, -13.757049280541585, 0, "2023-05-17 07:00:50.158064", 1.333, 2.3307142857142855]
[-14, -13.756599336426422, 0, "2023-05-17 07:00:51.160563", 1.333, 2.3307142857142855]
[-14, -13.75614940083293, 0, "2023-05-17 07:00:52.171157", 1.333, 2.3307142857142855]
[-14, -13.755699473760945, 0, "2023-05-17 07:00:53.186809", 1.333, 2.3307142857142855]
[-14, -13.755249555210305, 0, "2023-05-17 07:00:54.202460", 1.333, 2.3307142857142855]
[-14, -13.754799645180851, 0, "2023-05-17 07:00:55.209306", 1.333, 2.3307142857142855]
[-14, -13.75434974367242, 0, "2023-05-17 07:00:56.217675", 1.333, 2.3307142857142855]
[-14, -13.75389985068485, 0, "2023-05-17 07:00:57.231088", 1.333, 2.3307142857142855]
[-14, -13.75344996621798, 0, "2023-05-17 07:00:58.243631", 1.333, 2.3307142857142855]
[-14, -13.75300009027165, 0, "2023-05-17 07:00:59.246452", 1.333, 2.3307142857142855]
[-14, -13.752550222845697, 0, "2023-05-17 07:01:00.247482", 1.333, 2.3307142857142855]
[-14, -13.752100363939961, 0, "2023-05-17 07:01:01.248412", 1.333, 2.3307142857142855]
[-14, -13.751650513554281, 0, "2023-05-17 07:01:02.253366", 1.333, 2.3307142857142855]
[-14, -13.751200671688494, 0, "2023-05-17 07:01:03.258036", 1.333, 2.3307142857142855]
[-14, -13.750750838342439, 0, "2023-05-17 07:01:04.274421", 1.333, 2.3307142857142855]
[-14, -13.750301013515955, 0, "2023-05-17 07:01:05.280626", 1.333, 2.3307142857142855]
[-14, -13.74985119720888, 0.20011904223289606, "2023-05-17 07:26:04.410491", 1.333, 2.3307142857142855]
[-14, -13.70615980164129, 0.23507215868696818, "2023-05-17 07:47:20.637684", 1.333, 2.3307142857142855]
[-14, -13.762246423298903, 0, "2023-05-17 07:47:21.641513", 1.333, 2.3307142857142855]
[-14, -13.761796380753006, 0, "2023-05-17 07:47:22.647778", 1.333, 2.3307142857142855]
[-14, -13.761346346730644, 0, "2023-05-17 07:47:23.650955", 1.333, 2.3307142857142855]
[-14, -13.760896321231654, 0, "2023-05-17 07:47:24.664597", 1.333, 2.3307142857142855]
[-14, -13.760446304255872, 0, "2023-05-17 07:47:25.666284", 1.333, 2.3307142857142855]
[-14, -13.75999629580314, 0, "2023-05-17 07:47:26.680714", 1.333, 2.3307142857142855]
[-14, -13.759546295873294, 0, "2023-05-17 07:47:27.682112", 1.333, 2.3307142857142855]
[-14, -13.759096304466174, 0, "2023-05-17 07:47:28.695520", 1.333, 2.3307142857142855]
[-14, -13.75864632158162, 0, "2023-05-17 07:47:29.698223", 1.333, 2.3307142857142855]
[-14, -13.758196347219469, 0, "2023-05-17 07:47:30.713386", 1.333, 2.3307142857142855]
[-14, -13.75774638137956, 0, "2023-05-17 07:47:31.714977", 1.333, 2.3307142857142855]
[-14, -13.75729642406173, 0, "2023-05-17 07:47:32.725917", 1.333, 2.3307142857142855]
[-14, -13.756846475265819, 0, "2023-05-17 07:47:33.740185", 1.333, 2.3307142857142855]
[-14, -13.756396534991666, 0, "2023-05-17 07:47:34.755993", 1.333, 2.3307142857142855]
[-14, -13.755946603239108, 0, "2023-05-17 07:47:35.766946", 1.333, 2.3307142857142855]
[-14, -13.755496680007987, 0, "2023-05-17 07:47:36.776886", 1.333, 2.3307142857142855]
[-14, -13.755046765298138, 0, "2023-05-17 07:47:37.790364", 1.333, 2.3307142857142855]
[-14, -13.754596859109402, 0, "2023-05-17 07:47:38.799660", 1.333, 2.3307142857142855]
[-14, -13.754146961441615, 0, "2023-05-17 07:47:39.814346", 1.333, 2.3307142857142855]
[-14, -13.753697072294617, 0, "2023-05-17 07:47:40.816946", 1.333, 2.3307142857142855]
[-14, -13.753247191668247, 0, "2023-05-17 07:47:41.821060", 1.333, 2.3307142857142855]
[-14, -13.752797319562344, 0, "2023-05-17 07:47:42.824802", 1.333, 2.3307142857142855]
[-14, -13.752347455976746, 0, "2023-05-17 07:47:43.827407", 1.333, 2.3307142857142855]
[-14, -13.751897600911292, 0, "2023-05-17 07:47:44.842639", 1.333, 2.3307142857142855]
[-14, -13.75144775436582, 0, "2023-05-17 07:47:45.846066", 1.333, 2.3307142857142855]
[-14, -13.75099791634017, 0, "2023-05-17 07:47:46.849041", 1.333, 2.3307142857142855]
[-14, -13.75054808683418, 0, "2023-05-17 07:47:47.856775", 1.333, 2.3307142857142855]
[-14, -13.750098265847686, 0, "2023-05-17 07:47:48.856937", 1.333, 2.3307142857142855]
[-14, -13.74964845338053, 0.20028123729557593, "2023-05-17 08:12:46.765298", 1.333, 2.3307142857142855]
[-14, -13.706410561211772, 0.2348715510305823, "2023-05-17 08:34:04.083153", 1.333, 2.3307142857142855]
[-14, -13.762492618127165, 0, "2023-05-17 08:34:05.098138", 1.333, 2.3307142857142855]
[-14, -13.762042570918489, 0, "2023-05-17 08:34:06.111789", 1.333, 2.3307142857142855]
[-14, -13.761592532233433, 0, "2023-05-17 08:34:07.112609", 1.333, 2.3307142857142855]
[-14, -13.761142502071838, 0, "2023-05-17 08:34:08.116901", 1.333, 2.3307142857142855]
[-14, -13.76069248043354, 0, "2023-05-17 08:34:09.122593", 1.333, 2.3307142857142855]
[-14, -13.760242467318381, 0, "2023-05-17 08:34:10.123778", 1.333, 2.3307142857142855]
[-14, -13.759792462726198, 0, "2023-05-17 08:34:11.124947", 1.333, 2.3307142857142855]
[-14, -13.759342466656827, 0, "2023-05-17 08:34:12.126699", 1.333, 2.3307142857142855]
[-14, -13.758892479110111, 0, "2023-05-17 08:34:13.127702", 1.333, 2.3307142857142855]
[-14, -13.758442500085886, 0, "2023-05-17 08:34:14.143449", 1.333, 2.3307142857142855]
[-14, -13.75799252958399, 0, "2023-05-17 08:34:15.150762", 1.333, 2.3307142857142855]
[-14, -13.757542567604263, 0, "2023-05-17 08:34:16.165211", 1.333, 2.3307142857142855]
[-14, -13.757092614146543, 0, "2023-05-17 08:34:17.178874", 1.333, 2.3307142857142855]
[-14, -13.75664266921067, 0, "2023-05-17 08:34:18.191582", 1.333, 2.3307142857142855]
[-14, -13.75619273279648, 0, "2023-05-17 08:34:19.192118", 1.333, 2.3307142857142855]
[-14, -13.755742804903813, 0, "2023-05-17 08:34:20.194232", 1.333, 2.3307142857142855]
[-14, -13.755292885532509, 0, "2023-05-17 08:34:21.195447", 1.333, 2.3307142857142855]
[-14, -13.754842974682404, 0, "2023-05-17 08:34:22.207666", 1.333, 2.3307142857142855]
[-14, -13.754393072353338, 0, "2023-05-17 08:34:23.223762", 1.333, 2.3307142857142855]
[-14, -13.75394317854515, 0, "2023-05-17 08:34:24.239844", 1.333, 2.3307142857142855]
[-14, -13.753493293257677, 0, "2023-05-17 08:34:25.253758", 1.333, 2.3307142857142855]
[-14, -13.753043416490758, 0, "2023-05-17 08:34:26.257200", 1.333, 2.3307142857142855]
[-14, -13.752593548244233, 0, "2023-05-17 08:34:27.268657", 1.333, 2.3307142857142855]
[-14, -13.752143688517942, 0, "2023-05-17 08:34:28.283076", 1.333, 2.3307142857142855]
[-14, -13.75169383731172, 0, "2023-05-17 08:34:29.295659", 1.333, 2.3307142857142855]
[-14, -13.751243994625407, 0, "2023-05-17 08:34:30.308979", 1.333, 2.3307142857142855]
[-14, -13.750794160458842, 0, "2023-05-17 08:34:31.324255", 1.333, 2.3307142857142855]
[-14, -13.750344334811864, 0, "2023-05-17 08:34:32.326288", 1.333, 2.3307142857142855]
[-14, -13.74989451768431, 0.20008438585255137, "2023-05-17 08:59:31.708439", 1.333, 2.3307142857142855]
[-14, -13.704123683115036, 0.23670105350797144, "2023-05-17 09:20:39.139314", 1.333, 2.3307142857142855]
[-14, -13.76474788522445, 0, "2023-05-17 09:20:40.141875", 1.333, 2.3307142857142855]
[-14, -13.764297795302381, 0, "2023-05-17 09:20:41.144795", 1.333, 2.3307142857142855]
[-14, -13.763847713904743, 0, "2023-05-17 09:20:42.160301", 1.333, 2.3307142857142855]
[-14, -13.763397641031373, 0, "2023-05-17 09:20:43.175683", 1.333, 2.3307142857142855]
[-14, -13.76294757668211, 0, "2023-05-17 09:20:44.179425", 1.333, 2.3307142857142855]
[-14, -13.762497520856794, 0, "2023-05-17 09:20:45.180979", 1.333, 2.3307142857142855]
[-14, -13.762047473555263, 0, "2023-05-17 09:20:46.182733", 1.333, 2.3307142857142855]
[-14, -13.761597434777356, 0, "2023-05-17 09:20:47.185385", 1.333, 2.3307142857142855]
[-14, -13.761147404522909, 0, "2023-05-17 09:20:48.193121", 1.333, 2.3307142857142855]
[-14, -13.760697382791763, 0, "2023-05-17 09:20:49.199232", 1.333, 2.3307142857142855]
[-14, -13.760247369583755, 0, "2023-05-17 09:20:50.213798", 1.333, 2.3307142857142855]
[-14, -13.759797364898725, 0, "2023-05-17 09:20:51.215363", 1.333, 2.3307142857142855]
[-14, -13.759347368736512, 0, "2023-05-17 09:20:52.228736", 1.333, 2.3307142857142855]
[-14, -13.758897381096952, 0, "2023-05-17 09:20:53.230144", 1.333, 2.3307142857142855]
[-14, -13.758447401979886, 0, "2023-05-17 09:20:54.234639", 1.333, 2.3307142857142855]
[-14, -13.757997431385151, 0, "2023-05-17 09:20:55.235949", 1.333, 2.3307142857142855]
[-14, -13.757547469312588, 0, "2023-05-17 09:20:56.237423", 1.333, 2.3307142857142855]
[-14, -13.757097515762032, 0, "2023-05-17 09:20:57.241442", 1.333, 2.3307142857142855]
[-14, -13.756647570733325, 0, "2023-05-17 09:20:58.244904", 1.333, 2.3307142857142855]
[-14, -13.756197634226304, 0, "2023-05-17 09:20:59.258328", 1.333, 2.3307142857142855]
[-14, -13.755747706240808, 0, "2023-05-17 09:21:00.265915", 1.333, 2.3307142857142855]
[-14, -13.755297786776675, 0, "2023-05-17 09:21:01.282065", 1.333, 2.3307142857142855]
[-14, -13.754847875833743, 0, "2023-05-17 09:21:02.284910", 1.333, 2.3307142857142855]
[-14, -13.754397973411852, 0, "2023-05-17 09:21:03.299264", 1.333, 2.3307142857142855]
[-14, -13.75394807951084, 0, "2023-05-17 09:21:04.301117", 1.333, 2.3307142857142855]
[-14, -13.753498194130547, 0, "2023-05-17 09:21:05.307943", 1.333, 2.3307142857142855]
[-14, -13.75304831727081, 0, "2023-05-17 09:21:06.311787", 1.333, 2.3307142857142855]
[-14, -13.752598448931469, 0, "2023-05-17 09:21:07.318820", 1.333, 2.3307142857142855]
[-14, -13.75214858911236, 0, "2023-05-17 09:21:08.327983", 1.333, 2.3307142857142855]
[-14, -13.751698737813324, 0, "2023-05-17 09:21:09.330607", 1.333, 2.3307142857142855]
[-14, -13.7512488950342, 0, "2023-05-17 09:21:10.332179", 1.333, 2.3307142857142855]
[-14, -13.750799060774824, 0, "2023-05-17 09:21:11.336893", 1.333, 2.3307142857142855]
[-14, -13.750349235035037, 0, "2023-05-17 09:21:12.339426", 1.333, 2.3307142857142855]
[-14, -13.749899417814676, 0.200080465748259, "2023-05-17 09:46:11.744343", 1.333, 2.3307142857142855]
