HourDK,SpotPriceDKK
2023-05-16 23:00:00,0.42744000000000004
2023-05-16 22:00:00,0.5576199980000001
2023-05-16 21:00:00,0.788099994
2023-05-16 20:00:00,1.703039996
2023-05-16 19:00:00,1.722029987
2023-05-16 18:00:00,1.72546001
2023-05-16 17:00:00,1.72546002
2023-05-16 16:00:00,0.733740009
2023-05-16 15:00:00,0.518219997
2023-05-16 14:00:00,0.577869998
2023-05-16 13:00:00,0.7185500060000001
2023-05-16 12:00:00,0.808509998
2023-05-16 11:00:00,0.8858099850000001
2023-05-16 10:00:00,0.958569995
2023-05-16 09:00:00,0.974129993
2023-05-16 08:00:00,1.0002
2023-05-16 07:00:00,1.000790027
2023-05-16 06:00:00,1.0804700200000001
2023-05-16 05:00:00,0.665860022
2023-05-16 04:00:00,0.62988999
2023-05-16 03:00:00,0.61291001
2023-05-16 02:00:00,0.659750006
2023-05-16 01:00:00,0.68217002
2023-05-16 00:00:00,0.713819983
2023-05-17 23:00:00,1.174919971
2023-05-17 22:00:00,1.233530017
2023-05-17 21:00:00,1.372790027
2023-05-17 20:00:00,2.132230029
2023-05-17 19:00:00,1.8048599730000001
2023-05-17 18:00:00,1.764420001
2023-05-17 17:00:00,1.719509998
2023-05-17 16:00:00,0.45105
2023-05-17 15:00:00,0.42722000000000004
2023-05-17 14:00:00,0.4273
2023-05-17 13:00:00,0.42707
2023-05-17 12:00:00,0.43027000000000004
2023-05-17 11:00:00,0.43884
2023-05-17 10:00:00,0.448740001
2023-05-17 09:00:00,0.45120000000000005
2023-05-17 08:00:00,0.45239000100000004
2023-05-17 07:00:00,0.44480000000000003
2023-05-17 06:00:00,0.42677000000000004
2023-05-17 05:00:00,0.14986
2023-05-17 04:00:00,0.14978
2023-05-17 03:00:00,0.14994
2023-05-17 02:00:00,0.14993
2023-05-17 01:00:00,0.15008000000000002
2023-05-17 00:00:00,0.15097
